<?xml version="1.0" encoding="UTF-8" standalone="no" ?><gpx xmlns="http://www.topografix.com/GPX/1/1" xmlns:xsi="http://www.w3.org/2001/XMLSchema-instance" creator="Graphhopper version 0.10" version="1.1" xmlns:gh="https://graphhopper.com/public/schema/gpx/1.1">
<metadata><copyright author="OpenStreetMap contributors"/><link href="http://graphhopper.com"><text>GraphHopper GPX</text></link><time>2018-02-03T01:27:35Z</time></metadata>
<trk><name>GraphHopper Track</name><trkseg>
<trkpt lat="42.382448" lon="-71.030281"><ele>3.13</ele><time>2018-02-03T01:27:35Z</time></trkpt>
<trkpt lat="42.381951" lon="-71.030296"><ele>6.25</ele><time>2018-02-03T01:28:08Z</time></trkpt>
<trkpt lat="42.381949" lon="-71.033405"><ele>12.2</ele><time>2018-02-03T01:29:06Z</time></trkpt>
<trkpt lat="42.381975" lon="-71.039296"><ele>8.0</ele><time>2018-02-03T01:30:56Z</time></trkpt>
<trkpt lat="42.382605" lon="-71.039316"><ele>6.5</ele><time>2018-02-03T01:31:11Z</time></trkpt>
<trkpt lat="42.385405" lon="-71.039322"><ele>0.0</ele><time>2018-02-03T01:32:14Z</time></trkpt>
<trkpt lat="42.386743" lon="-71.039303"><ele>8.75</ele><time>2018-02-03T01:32:45Z</time></trkpt>
<trkpt lat="42.387893" lon="-71.03873"><ele>10.4</ele><time>2018-02-03T01:33:13Z</time></trkpt>
<trkpt lat="42.388071" lon="-71.039268"><ele>11.6</ele><time>2018-02-03T01:33:24Z</time></trkpt>
<trkpt lat="42.388421" lon="-71.04022"><ele>13.4</ele><time>2018-02-03T01:33:43Z</time></trkpt>
<trkpt lat="42.388483" lon="-71.040339"><ele>13.4</ele><time>2018-02-03T01:33:45Z</time></trkpt>
<trkpt lat="42.388593" lon="-71.040476"><ele>13.4</ele><time>2018-02-03T01:33:49Z</time></trkpt>
<trkpt lat="42.389309" lon="-71.04121"><ele>13.2</ele><time>2018-02-03T01:34:11Z</time></trkpt>
<trkpt lat="42.390209" lon="-71.042177"><ele>11.2</ele><time>2018-02-03T01:34:38Z</time></trkpt>
<trkpt lat="42.39071" lon="-71.042669"><ele>13.6</ele><time>2018-02-03T01:34:53Z</time></trkpt>
<trkpt lat="42.393328" lon="-71.045408"><ele>6.8</ele><time>2018-02-03T01:36:13Z</time></trkpt>
<trkpt lat="42.393438" lon="-71.045555"><ele>5.0</ele><time>2018-02-03T01:36:17Z</time></trkpt>
<trkpt lat="42.393559" lon="-71.045813"><ele>5.0</ele><time>2018-02-03T01:36:22Z</time></trkpt>
<trkpt lat="42.394259" lon="-71.047842"><ele>5.2</ele><time>2018-02-03T01:37:02Z</time></trkpt>
<trkpt lat="42.39483" lon="-71.049588"><ele>6.2</ele><time>2018-02-03T01:37:36Z</time></trkpt>
<trkpt lat="42.394559" lon="-71.049943"><ele>6.2</ele><time>2018-02-03T01:37:45Z</time></trkpt>
<trkpt lat="42.392803" lon="-71.051722"><ele>6.6</ele><time>2018-02-03T01:38:33Z</time></trkpt>
<trkpt lat="42.392485" lon="-71.052023"><ele>6.33</ele><time>2018-02-03T01:38:42Z</time></trkpt>
<trkpt lat="42.392232" lon="-71.052313"><ele>6.33</ele><time>2018-02-03T01:38:49Z</time></trkpt>
<trkpt lat="42.392211" lon="-71.052415"><ele>6.33</ele><time>2018-02-03T01:38:51Z</time></trkpt>
<trkpt lat="42.392235" lon="-71.052538"><ele>6.2</ele><time>2018-02-03T01:38:53Z</time></trkpt>
<trkpt lat="42.392314" lon="-71.052709"><ele>6.2</ele><time>2018-02-03T01:38:56Z</time></trkpt>
<trkpt lat="42.393742" lon="-71.055175"><ele>8.0</ele><time>2018-02-03T01:39:48Z</time></trkpt>
<trkpt lat="42.393938" lon="-71.055413"><ele>8.0</ele><time>2018-02-03T01:39:54Z</time></trkpt>
<trkpt lat="42.394138" lon="-71.055497"><ele>8.0</ele><time>2018-02-03T01:39:58Z</time></trkpt>
<trkpt lat="42.394348" lon="-71.05555"><ele>8.0</ele><time>2018-02-03T01:40:03Z</time></trkpt>
<trkpt lat="42.394593" lon="-71.056786"><ele>9.0</ele><time>2018-02-03T01:40:24Z</time></trkpt>
<trkpt lat="42.394676" lon="-71.057065"><ele>9.0</ele><time>2018-02-03T01:40:29Z</time></trkpt>
<trkpt lat="42.394786" lon="-71.057311"><ele>9.0</ele><time>2018-02-03T01:40:34Z</time></trkpt>
<trkpt lat="42.39591" lon="-71.059445"><ele>8.4</ele><time>2018-02-03T01:41:17Z</time></trkpt>
<trkpt lat="42.396064" lon="-71.059821"><ele>8.4</ele><time>2018-02-03T01:41:24Z</time></trkpt>
<trkpt lat="42.396787" lon="-71.061412"><ele>6.6</ele><time>2018-02-03T01:41:55Z</time></trkpt>
<trkpt lat="42.396229" lon="-71.062025"><ele>7.6</ele><time>2018-02-03T01:42:11Z</time></trkpt>
<trkpt lat="42.394561" lon="-71.063744"><ele>7.2</ele><time>2018-02-03T01:42:58Z</time></trkpt>
<trkpt lat="42.394174" lon="-71.064174"><ele>7.2</ele><time>2018-02-03T01:43:09Z</time></trkpt>
<trkpt lat="42.393202" lon="-71.065155"><ele>6.4</ele><time>2018-02-03T01:43:37Z</time></trkpt>
<trkpt lat="42.393123" lon="-71.065319"><ele>6.4</ele><time>2018-02-03T01:43:40Z</time></trkpt>
<trkpt lat="42.393123" lon="-71.06538"><ele>6.4</ele><time>2018-02-03T01:43:41Z</time></trkpt>
<trkpt lat="42.393181" lon="-71.065513"><ele>6.4</ele><time>2018-02-03T01:43:44Z</time></trkpt>
<trkpt lat="42.394263" lon="-71.067358"><ele>5.2</ele><time>2018-02-03T01:44:23Z</time></trkpt>
<trkpt lat="42.392989" lon="-71.06843"><ele>4.5</ele><time>2018-02-03T01:44:56Z</time></trkpt>
<trkpt lat="42.390745" lon="-71.070252"><ele>3.67</ele><time>2018-02-03T01:45:54Z</time></trkpt>
<trkpt lat="42.390317" lon="-71.070655"><ele>3.66</ele><time>2018-02-03T01:46:06Z</time></trkpt>
<trkpt lat="42.390043" lon="-71.070882"><ele>0.0</ele><time>2018-02-03T01:46:13Z</time></trkpt>
<trkpt lat="42.389611" lon="-71.071172"><ele>0.0</ele><time>2018-02-03T01:46:24Z</time></trkpt>
<trkpt lat="42.387513" lon="-71.072404"><ele>0.0</ele><time>2018-02-03T01:47:15Z</time></trkpt>
<trkpt lat="42.386885" lon="-71.072787"><ele>4.8</ele><time>2018-02-03T01:47:48Z</time></trkpt>
<trkpt lat="42.386248" lon="-71.07313"><ele>4.8</ele><time>2018-02-03T01:48:20Z</time></trkpt>
<trkpt lat="42.385402" lon="-71.07357"><ele>6.8</ele><time>2018-02-03T01:49:03Z</time></trkpt>
<trkpt lat="42.385099" lon="-71.07369"><ele>6.8</ele><time>2018-02-03T01:49:18Z</time></trkpt>
<trkpt lat="42.384332" lon="-71.074038"><ele>7.0</ele><time>2018-02-03T01:49:37Z</time></trkpt>
<trkpt lat="42.384132" lon="-71.074012"><ele>8.2</ele><time>2018-02-03T01:49:41Z</time></trkpt>
<trkpt lat="42.384037" lon="-71.073966"><ele>8.2</ele><time>2018-02-03T01:49:44Z</time></trkpt>
<trkpt lat="42.383962" lon="-71.073892"><ele>8.2</ele><time>2018-02-03T01:49:46Z</time></trkpt>
<trkpt lat="42.383914" lon="-71.0738"><ele>8.2</ele><time>2018-02-03T01:49:48Z</time></trkpt>
<trkpt lat="42.383862" lon="-71.073626"><ele>8.2</ele><time>2018-02-03T01:49:51Z</time></trkpt>
<trkpt lat="42.383851" lon="-71.073522"><ele>8.2</ele><time>2018-02-03T01:49:53Z</time></trkpt>
<trkpt lat="42.383873" lon="-71.073322"><ele>6.2</ele><time>2018-02-03T01:49:56Z</time></trkpt>
<trkpt lat="42.383943" lon="-71.073158"><ele>6.2</ele><time>2018-02-03T01:49:59Z</time></trkpt>
<trkpt lat="42.384094" lon="-71.072968"><ele>6.2</ele><time>2018-02-03T01:50:04Z</time></trkpt>
<trkpt lat="42.384115" lon="-71.072872"><ele>6.2</ele><time>2018-02-03T01:50:06Z</time></trkpt>
<trkpt lat="42.384112" lon="-71.07277"><ele>6.2</ele><time>2018-02-03T01:50:08Z</time></trkpt>
<trkpt lat="42.384073" lon="-71.072663"><ele>6.2</ele><time>2018-02-03T01:50:10Z</time></trkpt>
<trkpt lat="42.384022" lon="-71.072604"><ele>6.2</ele><time>2018-02-03T01:50:11Z</time></trkpt>
<trkpt lat="42.383889" lon="-71.07251"><ele>6.2</ele><time>2018-02-03T01:50:15Z</time></trkpt>
<trkpt lat="42.383747" lon="-71.072299"><ele>6.0</ele><time>2018-02-03T01:50:19Z</time></trkpt>
<trkpt lat="42.383473" lon="-71.071756"><ele>6.0</ele><time>2018-02-03T01:50:31Z</time></trkpt>
<trkpt lat="42.383407" lon="-71.071802"><ele>6.0</ele><time>2018-02-03T01:50:33Z</time></trkpt>
<trkpt lat="42.383188" lon="-71.071889"><ele>6.0</ele><time>2018-02-03T01:50:38Z</time></trkpt>
<trkpt lat="42.38301" lon="-71.071895"><ele>6.0</ele><time>2018-02-03T01:50:43Z</time></trkpt>
<trkpt lat="42.382276" lon="-71.071617"><ele>7.6</ele><time>2018-02-03T01:51:02Z</time></trkpt>
<trkpt lat="42.381877" lon="-71.071406"><ele>7.6</ele><time>2018-02-03T01:51:12Z</time></trkpt>
<trkpt lat="42.381491" lon="-71.071132"><ele>7.8</ele><time>2018-02-03T01:51:23Z</time></trkpt>
<trkpt lat="42.381301" lon="-71.070963"><ele>7.8</ele><time>2018-02-03T01:51:28Z</time></trkpt>
<trkpt lat="42.37895" lon="-71.068633"><ele>8.0</ele><time>2018-02-03T01:52:41Z</time></trkpt>
</trkseg>
</trk>
</gpx>