ProjectID,Project Name,Address,Street Number,Street Name,Neighborhood,Developer,Project Stage,Year Complete,Project Type,Permit Type,Zoning,Planning Board Special Permit,Building Permit,Total GFA,Lot Area,FAR,Primary Use,Residential Units,Affordable Units,Hotel Rooms,Parking Spaces,Note,Geocode Address,LatLong
42,,North Point Remaining Master Plan,,North Point Remaining Master Plan,East Cambridge,HYM Investments/Pan Am,Permit Granted or As of Right,,Master Plan,Planning Board Special Permit,NP/PUD-6/PUD-4A,PB179,N/A,3734367,3256310,,Mixed Use,1796,TBD,,See note,"Affordable housing contribution, parking spaces, and total project FAR to be determined.",24 East Street,"(42.3721674932999, -71.0731544543999)"
234,Cambridge Research Park,450 Kendall Street,450,Kendall Street,East Cambridge,Biomed Realty Trust,Building Permit Granted,,New Construction,Planning Board Special Permit,O-3/PUD-3,PB141,BLDC-008322-2013,53000,14463,3.66,Office/R&D,0,None,,See note,Parking accomodated in Cambridge Research Park.,450 Kendall Street,"(42.3633954768, -71.0815284585)"
236,Constellation Theatre/Cambridge Research Park,585 Kendall Street,585,Kendall Street,East Cambridge,Constellation,Permit Granted or As of Right,,New Construction,Planning Board Special Permit,O-3/PUD-3,PB141,,75000,35865,2.09,Theater,0,None,,See note,Parking for the project acommodated in Cambridge Research Park.,585 Kendall Street,"(42.3641474380999, -71.0826678014999)"
274,Broad Institute Expansion/ Cambridge Center,75 Ames Street,75,Ames Street,MIT / Area 2,Boston Properties,Building Permit Granted,,New Construction,Planning Board Special Permit,MXD,PB257,1111176-001974,250000,66599,3.76,Office/R&D,0,None,,See note,Parking to be accomodated in existing Cambridge Center garages.,75 Ames Street,"(42.3634729027, -71.0880155899999)"
295,Avalon Bay Housing Phase II,1-5 East Street,1-5,East Street,East Cambridge,C.E. Smith/Archstone Dev,Permit Granted or As of Right,,New Construction,Planning Board Special Permit,NP/PUD-6,PB175,N/A,446005,247431,3.77,Residential,341,TBD,,447,FAR includes Phase I building.,2 Leighton Street,"(42.3703935998, -71.0744786365)"
312,,159 First Street,159,First Street,East Cambridge,Urban Spaces,Building Permit Granted,,New Construction,Planning Board Special Permit,IA-1/BA/PUD-4B,PB231,BLDM-002316-2013,126000,29999,4.20,Residential,115,13,,79,64 spaces lcoated on-site and 15 spaces located off-site.,159 First Street,"(42.3661407135, -71.078419244)"
316,St. John's Resident Phase 2,124 Rindge Avenue,124,Rindge Avenue,North Cambridge,120 Realty Trust,Complete,2014,Addition/Alteration,Planning Board Special Permit,B,PB203,1212050-039665,21189,100068,0.76,Residential,16,2,,See note,"FAR based on Phases 1A, 1B, and 2. Parking incldued in prior phases.",124 Rindge Avenue,"(42.3919866857999, -71.1300457505)"
317,,355 Fresh Pond Parkway,355,Fresh Pond Parkway,Neighborhood 10,Roberta Sidney,Complete,2014,New Construction,Planning Board Special Permit,BA/Res B/Parkway Overlay,PB234,BLDC-001755-2013,11450,41854,0.41,Retail,0,None,,45,FAR based on approved plan including a second floor yet to be built.,355 Fresh Pond Parkway,"(42.3861076354, -71.1409175682999)"
324,Fawcett Street Housing Phase 2,80-90 Fawcett Street,80-90,Fawcett Street,Cambridge Highlands,CCF/O'Connor,Complete,2014,New Construction,Planning Board Special Permit,O-1/AOD-4,PB255,812200-018009,392514,197173,2.37,Residential,339,39,,See note,Parking allocated from 80 Fawcett Street Phase I.,80 Fawcett Street,"(42.3912099659999, -71.1459482703999)"
325,YWCA,7-11 Temple Street,7-11,Temple Street,Mid-Cambridge,Cambridge Affordable Hsg. Corp,Building Permit Granted,,New Construction,Comprehensive Permit,BB/O-3/CSOD,N/A,BLDM-008282-2013,96161,36990,2.59,Residential,42,TBD,,33,Parking spaces serves a total of 66 units on-site; 42 new units and 24 existing units.,5 Temple Street,"(42.3665710542, -71.1043479684999)"
326,Conductor's Building,114 Mt. Auburn Street,114,Mt. Auburn Street,Neighborhood 10,Carpenter Company,Building Permit Granted,,New Construction,Planning Board Special Permit,BB/HSOD,PB235,BLDC-012909-2014,83200,20800,4.00,Office/R&D,0,None,,See note,Includes retail component with size TBD. Parking reduced to zero because of commercial parking available in Charles Hotel garage.,114 Mt. Auburn Street,"(42.3730377011999, -71.1223610607)"
327,,160-180 Cambridgepark Drive,160-180,Cambridgepark Drive,North Cambridge,BRE/CPD,Building Permit Granted,,New Construction,Planning Board Special Permit,O-2A/AOD-6,PB270,BLDM-000826-2013,445000,183604,2.40,Residential,398,46,,398,Garage also includes 150 spaces shared with adjacent office buildings.,160 Cambridgepark Drive,"(42.3950042, -71.1475281655999)"
329,Kaya Hotel,1924 Massachusetts Avenue,1924,Massachusetts Avenue,North Cambridge,Kaya-Ka,Building Permit Granted,,New Construction,Planning Board Special Permit,BC/B/NMAOD,PB237,BLDC-010552-2013,24162,14880,1.60,Hotel,0,None,65,40,"Includes restaurant, component GFA unknown. Parking for hotel and restaurant.",1924 Massachusetts Avenue,"(42.3893555901999, -71.1202461058999)"
331,MITIMCO Phase 1/South Building - Pfizer,610 Main Street,610,Main Street,Area IV,MIT,Complete,2014,New Construction,Planning Board Special Permit,IB,PB238,112013-026869,180053,210215,2.75,Office/R&D,0,None,,380,FAR includes Phase I building. 650 Parking spaces in underground garage. 380 spaces shared with 700 Main St. 270 spaces allocated to phase II.,610 Main Street,"(42.3619074340999, -71.0941002052999)"
334,,22 Water Street,22,Water Street,East Cambridge,Catamount Holdings LLC,Building Permit Granted,,New Construction,Planning Board Special Permit,NP/PUD-6,PB247,BLDC-002865-2013,408225,104673,4.62,Residential,392,45,,351,,22 Water Street,"(42.3726174582999, -71.0785593882999)"
343,St. James Development,1991-2013 Massachusetts Avenue,1991-2013,Massachusetts Avenue,North Cambridge,Oaktree Development,Permit Granted or As of Right,,Addition,Planning Board Special Permit,BA-2/NMAOD,PB241,N/A,73528,58194,1.75,Residential,46,TBD,,46,"64 total spaces on-site include 46 spaces for 1991-2013 Mass Ave and 18 spaces for adjacent St. James church. FAR included 22,560 existing SF church.",1991 Massachusetts Avenue,"(42.3908306590999, -71.1213666236999)"
355,Vox on 2 Phase 2,223 Concord Turnpike,223,Concord Turnpike,North Cambridge,"CPC-T, LP",Complete,2014,New Construction,Planning Board Special Permit,SD-4A,PB227,1111207-016780,168953,173909,1.46,Residential,152,17,,See note,FAR includes Phase I. Parking allocated from Phase I.,223 Concord Turnpike,"(42.4000038627999, -71.1506122569)"
356,Art Institute of Boston,1801 Massachusetts Avenue,1801,Massachusetts Avenue,Agassiz,Lesley University,Building Permit Granted,,Addition/Alteration,Planning Board Special Permit,BA-2/NMAOD,PB253,BLDC-011478-2014,74500,28063,2.65,Educational,0,None,,See note,Parking allocated from Lesley University pool.,1801 Massachusetts Avenue,"(42.386577908, -71.1187495352999)"
358,North Cambridge Catholic HS Site,40 Norris Street,40,Norris Street,North Cambridge,Lacourt Family LLC,Complete,2014,Addition/Alteration,Planning Board Special Permit,B,PB252,1112152-037888,45578,25700,1.80,Residential,25,4,,27,,40 Norris Street,"(42.3950959626, -71.1296530695999)"
360,Binney St. Alexandria Master Plan,50 Binney Street,50,Binney Street,East Cambridge,Alexandria Real Estate,Building Permit Granted,,New Construction,Planning Board Special Permit,IA-1/PUD-3A,PB243,BLDC-018436-2014,484568,63844,7.59,Office/R&D,0,None,,432,,50 Binney Street,"(42.3649661923, -71.0792594779999)"
361,,34-36 Hampshire Street,34-36,Hampshire Street,Area IV,CJ Griffen Enterprises,Permit Granted or As of Right,,New Construction,Planning Board Special Permit,IB,PB256,N/A,21300,4176,5.10,Residential,20,TBD,,10,,36 Hampshire Street,"(42.36632977, -71.0919771411)"
365,EF Offices,1 Education Street,1,Education Street,East Cambridge,EFEKTA Inc.,Building Permit Granted,,New Construction,Planning Board Special Permit,NP/PUD-6,PB262,BLDC-014347-2014,295000,138000,2.14,Office/R&D,0,None,,126,,8 Education Street,"(42.3696155885999, -71.0689635693999)"
367,Novartis,181 Massachusetts Avenue,181,Massachusetts Avenue,Area IV,Novartis,Building Permit Granted,,New Construction,Planning Board Special Permit,SD-15,PB265,612325-027729,572663,163618,3.50,Office/R&D,0,None,,458,,181 Massachusetts Avenue,"(42.3610031341999, -71.0959346527999)"
369,Binney St. Alexandria Master Plan,75-125 Binney Street,75-125,Binney Street,East Cambridge,Alexanderia Real Estate,Building Permit Granted,,New Construction,Planning Board Special Permit,IA-1/PUD-3A,PB243,1112169-012177,347692,104185,3.37,Office/R&D,0,None,,313,,125 Binney Street,"(42.365799477, -71.0807416856)"
370,Binney St. Alexandria Master Plan,100 Binney Street,100,Binney Street,East Cambridge,Alexandria Real Estate,Permit Granted or As of Right,,New Construction,Planning Board Special Permit,IA-1/PUD-3A,PB243,N/A,387700,54433,7.12,Office/R&D,0,None,,363,Total 665 spaces in underground garage; 365 for 100 Binney st. and 302 spaces for 215 First St.,100 Binney Street,"(42.3651253725, -71.0808334305999)"
371,Binney St. Alexandria Master Plan,161 First Street,161,First Street,East Cambridge,Alexandria Real Estate,Permit Granted or As of Right,,Addition/Alteration,Planning Board Special Permit,IA-1/PUD-3A,PB243,,150000,40000,3.75,Residential,129,TBD,,129,,161 First Street,"(42.3655945804, -71.0786592824999)"
372,Binney St. Alexandria Master Plan,41 Linskey Way,41,Linskey Way,East Cambridge,Alexandria Real Estate,Permit Granted or As of Right,,Addition/Alteration,Planning Board Special Permit,IA-1/PUD-3A,PB243,N/A,16200,9625,1.68,Office/R&D,0,None,,See note,A.K.A. 219 Second St. Parking is included in 100 Binney St. Garage.,41 Linskey Way,"(42.3649674983999, -71.0802266967999)"
373,Binney St. Alexandria Master Plan,270 Third Street,270,Third Street,East Cambridge,Alexandria Real Estate,Permit Granted or As of Right,,New Construction,Planning Board Special Permit,IA-1/PUD-4B,PB243,N/A,78000,17435,4.47,Residential,91,TBD,,91,,270 Third Street,"(42.3659489241999, -71.0820951643)"
378,MITIMCO Phase 2/North Building,610 Main Street,610,Main Street,Area IV,MIT,Building Permit Granted,,New Construction,Planning Board Special Permit,IB,PB238,BLDC-015112-2014,238264,210215,2.75,Office/R&D,0,None,,270,FAR includes Phase I building. 650 Parking spaces in underground garage. 380 spaces allocated to phase I and 700 Main St.,610 Main Street,"(42.3627652642, -71.0945607422)"
379,,20 Charles Street,20,Charles Street,East Cambridge,Jones Lang LaSalle,Permit Granted or As of Right,,New Construction,Planning Board Special Permit,IA-1/BA/PUD-4B,PB231,N/A,14400,20036,0.72,Residential,8,TBD,,8,,12 Charles Street,"(42.3671135585, -71.0783172148999)"
381,Discovery Park Master Plan,400 Discovery Park,400,Discovery Park,North Cambridge,Bulfinch Company,Permit Granted or As of Right,,New Construction,Planning Board Special Permit,SD-4,PB198,N/A,96000,1154420,0.61,Office/R&D,0,None,,See note,FAR is for entire Discovery Park development. Parking to be allocated from Discovery Park inventory.,15 Acorn Park Drive,"(42.3981808077, -71.1477991777999)"
382,Discovery Park Master Plan,500 Discovery Park,500,Discovery Park,North Cambridge,Bulfinch Company,Permit Granted or As of Right,,New Construction,Planning Board Special Permit,SD-4,PB198,N/A,132000,1154420,0.61,Office/R&D,0,None,,See note,FAR is for entire Discovery Park development. Parking to be allocated from Discovery Park inventory.,15 Acorn Park Drive,"(42.3983003999, -71.1471004934)"
383,Discovery Park Master Plan,600 Discovery Park,600,Discovery Park,North Cambridge,Bulfinch Company,Permit Granted or As of Right,,New Construction,Planning Board Special Permit,SD-4,PB198,N/A,82000,1154420,0.61,Hotel,0,None,150,See note,FAR is for entire Discovery Park development. Parking to be allocated from Discovery Park inventory.,15 Acorn Park Drive,"(42.3987162287, -71.1470707988)"
384,Discovery Park Master Plan,Discovery Park Garage B,,Discovery Park Garage B,North Cambridge,Bulfinch Company,Permit Granted or As of Right,,New Construction,Planning Board Special Permit,SD-4,PB198,N/A,141745,1154420,,Parking Garage,0,None,,380,,15 Acorn Park Drive,"(42.3989313956999, -71.1477676227)"
385,,603 Concord Avenue,603,Concord Avenue,Cambridge Highlands,AbodeZ Acorn LLC,Building Permit Granted,,New Construction,Planning Board Special Permit,BA/AOD-5,PB269,BLDC-005490-2013,64189,29034,2.21,Residential,61,7,,77,61 residential and 16 retail spaces,603 Concord Avenue,"(42.3889607389, -71.1445059528)"
389,Maple Leaf Building,10 Glassworks Avenue,10,Glassworks Avenue,East Cambridge,Archstone Development,Building Permit Granted,,Change of Use,Planning Board Special Permit,NP/PUD-6,PB175,1112137-020645,63210,247431,3.77,Residential,104,12,,See note,Parking located in existing Avalon Bay / Archstone Phase I garage.,10 Glassworks Avenue,"(42.3702704195999, -71.072853428)"
390,,165 Cambridgepark Drive,165,Cambridgepark Drive,North Cambridge,Hines Interests Limited,Building Permit Granted,,New Construction,Planning Board Special Permit,O-2A/AOD-6,PB275,BLDM-009426-2013,280000,119274,2.35,Residential,244,28,,230,,165 Cambridgepark Drive,"(42.3953600162, -71.1474173353)"
392,,131 Harvard Street,131,Harvard Street,Area IV,Capstone Communities/Sean Hope RE,Permit Granted or As of Right,,New Construction,Board of Zoning Appeals,C-2B,N/A,N/A,30983,10000,2.34,Residential,20,20,,20,GFA includes structured parking.,131 Harvard Street,"(42.3654741102999, -71.0937380706999)"
394,"North Point Master Plan Bldg ""N""/2020",20 Child Street,20,Child Street,East Cambridge,HYM Investments,Building Permit Granted,,New Construction,Planning Board Special Permit,NP/PUD-6,PB179,BLDC-003384-2013,388000,,,Residential,355,41,,355,Lot area and FAR to be determined.,20 Child Street,"(42.371614925, -71.0719950585999)"
395,The Ivy Residents,262 Msgr. O'Brien Highway,262,Msgr. O'Brien Highway,East Cambridge,YIHE Group,Permit Granted or As of Right,,New Construction,Large Project Review,SD-1,N/A,N/A,64222,19078,3.37,Residential,56,TBD,,56,,262 Monsignor OBrien Highway,"(42.3734405177999, -71.0819208536999)"
397,Harvard Fogg Museum Addition,32 Quincy Street,32,Quincy Street,Mid-Cambridge,Harvard College,Complete,2014,Addition/Alteration,Board of Zoning Appeals,C-3,N/A,1210153-038829,204000,184924,2.08,Museum,0,None,,See note,FAR based on entire parcel and includes several existing buildings. Parking allocate from Harvard University pool.,32 Quincy Street,"(42.3741868981, -71.1144443807999)"
398,,130 Cambridgepark Drive,130,Cambridgepark Drive,North Cambridge,The Hanover Company,Permit Granted or As of Right,,New Construction,Planning Board Special Permit,O-2A/AOD-6,PB279,N/A,213321,102013,2.10,Residential,220,TBD,,220,"120 spaces located on-site, 100 spaces located in 150 Cambridgepark Drive garage.",78 Cambridgepark Drive,"(42.3936697908999, -71.1450265850999)"
399,,240 Sidney Street,240,Sidney Street,Cambridgeport,Dinosaur Capital,Permit Granted or As of Right,,New Construction,Planning Board Special Permit,SD-8A,PB278,N/A,96431,54130,1.78,Residential,96,TBD,,106,,240 Sidney Street,"(42.3567348974, -71.1065265316999)"
400,,33 Cottage Park Avenue,33,Cottage Park Avenue,North Cambridge,Tyler Court Limited Partnership,Permit Granted or As of Right,,New Construction,Planning Board Special Permit,SD-2,PB276,N/A,83528,130079,0.64,Residential,67,TBD,,71,,1 Tyler Court,"(42.3984010982999, -71.1335109325)"
401,"MLK, Jr. School",100 Putnam Avenue,100,Putnam Avenue,Riverside,City of Cambridge,Building Permit Granted,,New Construction,Planning Board Special Permit,C-1,PB277,BLDC-012909-2014,169221,147534,1.15,Government,0,None,,75,34 spaces by zoning but 75 spaces available using tandem parking.,100 Putnam Avenue,"(42.367030192, -71.1133164577999)"
402,KFC Redevelopment,168 Hampshire Street,168,Hampshire Street,Area IV,Agnosis Developmnet LLC,Building Permit Granted,,New Construction,As of Right,BA,N/A,213013-027680,23543,10100,2.33,Residential,11,1,,11,,168 Hampshire Street,"(42.3720348797, -71.0989600535999)"
403,Courthouse Redevelopment,40 Thorndike Street,40,Thorndike Street,East Cambridge,Leggat McCall,Permitting,,Addition/Alteration,Planning Board Special Permit,BB,PB298,N/A,476303,59788,7.97,Office/R&D,24,TBD,,512,"92 on-site spaces, 420 existing off-site spaces.",40 Thorndike Street,"(42.3694877348, -71.0795629176)"
404,Gourmet Express Redevelopment,1868 Massachusetts Avenue,1868,Massachusetts Avenue,Neighborhood 9,Peter Wasserman,Permit Granted or As of Right,,New Construction,Large Project Review,BC/C-1,N/A,DEMO-018477-2014,30759,13325,2.31,Residential,27,TBD,,27,42 total on-site spaces include 27 residential spaces plus 15 spaces to be used by Lesley University.,1868 Massachusetts Avenue,"(42.3880840691999, -71.1195744895999)"
405,Miso Block Redevlopment,1971 Massachusetts Avenue,1971,Massachusetts Avenue,North Cambridge,Urban Spaces,Permit Granted or As of Right,,New Construction,Large Project Review,BC,N/A,N/A,26351,14044,1.81,Residential,20,TBD,,20,,1969 Massachusetts Avenue,"(42.390126234, -71.1205118399)"
406,,18 White Street,18,White Street,North Cambridge,Ben Rogan,Building Permit Granted,,New Construction,As of Right,BC,N/A,BLDM-007372-2013,9979,5080,1.96,Residential,8,None,,8,,18 White Street,"(42.3888947005, -71.1182920589999)"
407,,75 New Street,75,New Street,Neighborhood 9,AbodeZ Acorn LLC,Permitting,,New Construction,Planning Board Special Permit,IA-1,PB286,N/A,96049,49256,1.95,Residential,93,TBD,,94,,75 New Street,"(42.3889398492, -71.1401582515999)"
408,,10 Essex Street,10,Essex Street,Area IV,3 MJ Associates LLC,Permit Granted or As of Right,,New Construction,Planning Board Special Permit,BB/CSOD,PB285,N/A,52333,34744,3.27,Residential,46,TBD,,23,FAR includes existing building on parcel.,8  Essex Street,"(42.3654694824, -71.1025378476)"
409,,15-33 Richdale Avenue,15-33,Richdale Avenue,Neighborhood 9,Hathaway Lofts LLC,Permitting,,Addition/Alteration,Planning Board Special Permit,C-1A,PB284,N/A,65384,42043,1.58,Residential,46,TBD,,46,,33 Richdale Avenue,"(42.3884694858, -71.1222930244999)"
410,University Park Millenium Bldg.,300 Massachusetts Avenue,300,Massachusetts Avenue,Cambridgeport,Forest City,Building Permit Granted,,New Construction,Planning Board Special Permit,CRDD,PB283,BLDC-010858-2014,218501,50634,4.30,Office/R&D,0,None,,227,Parking willl be provided by using existing University Park garage at 55 Franklin St.,300 Massachusetts Avenue,"(42.362064967, -71.0983515643)"
604,,219 Monsignor O'Brien Highway,219,Monsignor O'Brien Highway,East Cambridge,Pro Con Inc,Building Permit Granted,,New Construction,Large Project Review,SD-1,N/A,BLDC-008152-2013,50368,12478,4.04,Hotel,0,None,123,55,,219 Monsignor OBrien Highway,"(42.3729443633, -71.079677434)"
605,,88 Cambridgepark Drive,88,Cambridgepark Drive,North Cambridge,McKinnon Company,Permitting,,New Construction,Planning Board Special Permit,O-2A/AOD-6,PB292,N/A,294000,174496,1.70,Residential,254,TBD,,185,91 spaces on-site and 94 shared parking spaces with adjacent office buildings.,88 Cambridgepark Drive,"(42.3933390102999, -71.1439127364999)"
606,Harvard JFK School Expansion,79 JFK Street,79,JFK Street,Neighborhood 10,Harvard University,Permitting,,Addition,Planning Board Special Permit,C-3,PB293,N/A,76862,126655,2.51,Educational,0,None,,See note,FAR includes existing building on-site. 129 spaces to be allocated from campus pool.,79 JFK Street,"(42.3709835351999, -71.1217447768)"
607,Cambridge Center,88 Ames Street,88,Ames Street,Wellington Harrington,Boston Properties,Permitting,,New Construction,Planning Board Special Permit,MXD,PB294,N/A,216000,16542,13.06,Residential,280,TBD,,140,Parking acommodated in Cambridge Center East Garage.,73 Ames Street,"(42.3631357717, -71.0877519099999)"
