ProjectID,Project Name,Address,Street Number,Street Name,Neighborhood,Developer,Project Stage,Year Complete,Project Type,Permit Type,Zoning,Planning Board Special Permit,Building Permit,Total GFA,Lot Area,FAR,Primary Use,Residential Units,Affordable Units,Hotel Rooms,Parking Spaces,Note,Geocode Address,LatLong,Latitude,Longitude
372,Binney St. Alexandria Master Plan,41 Linskey Way,41,Linskey Way,East Cambridge,Alexandria Real Estate,Permit Granted or As of Right,,Addition/Alteration,Planning Board Special Permit,IA-1/PUD-3A,PB243,N/A,16189,9625,1.68,Office/R&D,0,None,,15,Also known as 219 Second St.  Parking provided at 50/60 Binney St. Garage.,41 Linskey Way,"(42.3649674983999, -71.0802266967999)",42.3649674983999,-71.0802266967999
602,,57 JFK Street,57,JFK Street,West Cambridge,Raj Dhanda,Permit Granted or As of Right,,Addition,Planning Board Special Permit,BB/HSOD,PB296,N/A,18351,17357,3.53,Office/R&D,0,None,,0,FAR includes existing building not included in project area.,57 JFK Street,"(42.372217, -71.120812)",42.372217,-71.120812
395,The Ivy Residents,262 Msgr. O'Brien Highway,262,Msgr. O'Brien Highway,East Cambridge,YIHE Group,Building Permit Granted,,New Construction,Large Project Review,SD-1,N/A,BLDM-030215-2015,64222,19078,3.37,Residential,55,6,,56,,262 Monsignor OBrien Highway,"(42.3734405177999, -71.0819208536999)",42.3734405177999,-71.0819208536999
620,,16-18 Eliot Street,16-18,Eliot Street,West Cambridge,16-18 Eliot LLC,Permit Granted or As of Right,,Addition,Planning Board Special Permit,BB/HSOD,PB300,N/A,11935,6964,3.47,Residential,15,TBD,,0,"FAR includes 12,262 SF of existing retail space not included in project area.",16 Eliot Street,"(42.372122, -71.121391)",42.372122,-71.121391
403,Courthouse Redevelopment,40 Thorndike Street,40,Thorndike Street,East Cambridge,Leggat McCall,Permit Granted or As of Right,,Addition/Alteration,Planning Board Special Permit,BB,PB288,N/A,476303,59788,7.97,Office/R&D,24,TBD,,512,Redevelopment of former Middlesex County Courthouse. Parking includes 92 spaces on-site and 420 spaces located off-site.,40 Thorndike Street,"(42.36922588, -71.0796096299999)",42.36922588,-71.0796096299999
408,,10 Essex Street,10,Essex Street,The Port/Area IV,3 MJ Associates LLC,Building Permit Granted,,New Construction,Planning Board Special Permit,BB/CSOD,PB285,BLDC-054470-2017,52333,34744,3.27,Residential,46,5,,24,FAR includes existing building on parcel.,8  Essex Street,"(42.3654694824, -71.1025378476)",42.3654694824,-71.1025378476
648,,300 Putnam Avenue,300,Putnam Avenue,Cambridgeport,Biotech Realty Investors,Permit Granted or As of Right,,New Construction,Planning Board Special Permit,BA-3/C-1,PB317,N/A,23254,23851,0.98,Residential,16,TBD,,16,Includes demolition of existing building.  Also known as 357-363 Allston Street.,300 Putnam Avenue,"(42.361989, -71.113278)",42.361989,-71.113278
634,1 Kendall Square Addition,399 Binney Street,399,Binney Street,Wellington Harrington,DivcoWest,Building Permit Granted,,New Construction,Planning Board Special Permit,IA-1 ECHO,PB310,BLDC-057636-2017,172500,152868,1.13,Office/R&D,0,None,,225,"Addition to One Kendall Square development. FAR includes parking garage parcel. All parking provided in existing garage. Demolition of existing 29,200 SF building.",399 Binney Street,"(42.367769, -71.090518)",42.367769,-71.090518
382,500 Discovery Park/Discovery Park Master Plan,20 Acorn Park,20,Acorn Park,North Cambridge,Bulfinch Company,Building Permit Granted,,New Construction,Planning Board Special Permit,SD-4,PB198,BLDC-057679-2017,132000,1154420,0.61,Office/R&D,0,None,,See note,FAR is for entire Discovery Park development. Parking to be allocated from Discovery Park inventory.,15 Acorn Park Drive,"(42.3983003999, -71.1471004934)",42.3983003999,-71.1471004934
605,Residential Units,80-84 Cambridgepark Drive,80-84,Cambridgepark Drive,North Cambridge,Hanover,Building Permit Granted,,New Construction,Planning Board Special Permit,O-2A/AOD-6,PB292,BLDM-051623-2016,292400,174496,1.70,Residential,254,30,,185,Parking includes 94 spaces shared with nearby office buildings. 121 spaces sited underneath residential structure. Remainder included in separate phase 541 space garage. Formerly 88 Cambridgepark Dr.,88 Cambridgepark Drive,"(42.3933390102999, -71.1439127364999)",42.3933390102999,-71.1439127364999
637,,35 Cambridgepark Drive,35,Cambridgepark Drive,North Cambridge,Davis Companies/TDC Development,Building Permit Granted,,Alteration/Enlargement,Planning Board Special Permit,AOD6,PB314,BLDC-058169-2017,184774,106095,1.75,Office/R&D,0,None,,331,"Addition to existing office building. FAR includes existing structure. Development will reduce parking from 351 to 331 spaces. Existing building is 137,635 SF.",35 Cambridgepark Drive,"(42.394959, -71.143467)",42.394959,-71.143467
407,,75-77 New Street,75-77,New Street,Neighborhood 9,AbodeZ Acorn LLC,Building Permit Granted,,New Construction,Planning Board Special Permit,IA-1,PB286,BLDM-058523-2017,92800,49256,1.95,Residential,94,11,,94,Includes demolition of existing warehouse.,75 New Street,"(42.3889398492, -71.1401582515999)",42.3889398492,-71.1401582515999
381,400 Discovery Park/Discovery Park Master Plan,30 Acorn Park,30,Acorn Park,North Cambridge,Bulfinch Company,Building Permit Granted,,New Construction,Planning Board Special Permit,SD-4,PB198,BLDC-057678-2017,126618,1154420,0.61,Office/R&D,0,None,,See note,FAR is for entire Discovery Park development. Parking to be allocated from Discovery Park inventory.,15 Acorn Park Drive,"(42.3981808077, -71.1477991777999)",42.3981808077,-71.1477991777999
677,MIT Kendall Square Building 2,84 Wadsworth Street,84,Wadsworth Street,MIT / Area 2,MIT,Permit Granted or As of Right,,New Construction,Planning Board Special Permit,C-3B MXD/PUD 5,PB303,N/A,318000,69711,4.48,Office/R&D,0,None,,278,Permanent street address to be assigned by DPW. FAR for entire SoMa project including retained buildings.,84 Wadsworth Street,"(42.361824, -71.084035)",42.361824,-71.084035
659,Somerbridge Hotel,263 Msgr. O'Brien Highway,263,Msgr. O'Brien Highway,East Cambridge,Somerbridge Hotel LLC,Permit Granted or As of Right,,New Construction,Board of Zoning Appeals,SD-1,N/A,N/A,23221,15490,1.50,Hotel,0,None,120,23,Project partially located in Somerville. Includes demolition of existing structure.,263 MONSIGNOR OBRIEN HWY,"(42.373752, -71.081546)",42.373752,-71.081546
679,MIT Kendall Square Building 3,238 Main Street,238,Main Street,MIT / Area 2,MIT,Permit Granted or As of Right,,New Construction,Planning Board Special Permit,C-3B MXD/PUD 5,PB303,N/A,380201,60594,4.48,Office/R&D,0,None,,See note,Permanent street address to be assigned by DPW. Site incorporates existing building at 238 Main Street. Parking at 25 Hayward Street garage. FAR for entire SoMa project including retained buildings.,242 Main Street,"(42.362093, -71.084705)",42.362093,-71.084705
683,MIT Kendall Square Building 6,380 Main Street,380,Main Street,MIT / Area 2,MIT,Permit Granted or As of Right,,New Construction,Planning Board Special Permit,C-3B MXD/PUD 5,PB303,N/A,13200,4971,4.48,Retail,0,None,,See note,Permanent street address yet to be assigned by DPW. Parking at 25 Hayward Street garage. FAR for entire SoMa project including retained buildings.,380 Main Street,"(42.362329, -71.087586)",42.362329,-71.087586
644,Smith Campus Center/formerly Holyoke Center,1336-1362 Massachusetts Avenue,1336-1362,Massachusetts Avenue,Riverside,Harvard University,Building Permit Granted,,Alteration,Board of Zoning Appeals,BB,N/A,BLDC-043682-2016,95000,74913,1.27,Institutional,0,None,,130,Project consists of significant updates to building formerly known as Holyoke Center and adjacent publicly-accessible privately-owned open space. 130 existing parking spaces retained.,1350 Massachusetts Avenue,"(42.372708, -71.118836)",42.372708,-71.118836
655,SoMa Garage - MIT Kendall Square,25 Hayward Street,25,Hayward Street,MIT / Area 2,MIT,Building Permit Granted,,New Construction,Planning Board Special Permit,C-3B MXD/PUD 5,PB303,BLDC-053887-2017,0,0,4.48,Parking Garage,0,None,,See note,"Includes 1,121 space subsurface garage. Will serve four SoMa buildings at 238-380 Main Street. Includes replacement of existing surfaces lots and academic spaces. FAR includes entire SoMa project.",292 Main Street,"(42.361172, -71.085335)",42.361172,-71.085335
686,NoMa - Original Building Phase 1,1 Broadway,1,Broadway,East Cambridge,MIT,Building Permit Granted,,New Construction,Planning Board Special Permit,"O-3A, PUD-3",PB302,BLDC-060080-2017,26200,74736,5.55,Retail,0,None,,See note,"FAR includes existing One Broadway and proposed Building 1, including new residential garage. Parking included in phases 3-5.",1 Broadway,"(42.3627385552, -71.0840144502)",42.3627385552,-71.0840144502
670,MXD Infill,145 Broadway,145,Broadway,East Cambridge,Boston Properties,Building Permit Granted,,New Construction,Planning Board Special Permit,MXD,PB315,BLDC-061774-2017,453768,56760,6.27,Office/R&D,0,None,,350,"Also known as 11 Cambridge Center.  Replacement of existing 78,636 SF office building.  FAR for entire MXD Infill project.",,"(42.364928, -71.088871)",42.364928,-71.088871
681,MIT Kendall Square Building 5,314 Main Street,314,Main Street,MIT / Area 2,MIT,Permit Granted or As of Right,,New Construction,Planning Board Special Permit,C-3B MXD/PUD 5,PB303,N/A,372110,36002,4.48,Office/R&D,0,None,,See note,Includes demolition of existing low-rise retail building. Parking at 25 Hayward Street garage. FAR for entire SoMa project including retained buildings.,310 Main Street,"(42.362222, -71.086631)",42.362222,-71.086631
653,MXD Infill,250 Binney Street,250,Binney Street,East Cambridge,Boston Properties,Permit Granted or As of Right,,New Construction,Planning Board Special Permit,MXD,PB315,N/A,318644,60624,6.27,Office/R&D,0,None,,650,"Also known as 14 Cambridge Center.  Replacement of existing 62,576 SF office building.  FAR for entire MXD Infill project.",145 Braodway,"(42.365916, -71.086427)",42.365916,-71.086427
652,King Open School Complex,850 Cambridge Street,850,Cambridge Street,Wellington Harrington,City of Cambridge,Building Permit Granted,,New Construction,Planning Board Special Permit,C-1,PB323,BLDC-059462-2017,233862,527492,0.47,Institutional,0,None,,105,"Replacement of King Open School complex. FAR includes existing Frisoli Youth Center. Project includes two school buildings, library branch, pool replacement, and offices for School Department.",850 Cambridge Street,"(42.372, -71.091124)",42.372,-71.091124
671,Cambridge Crossing Master Plan Bldg J/K,24 East Street,24,East Street,East Cambridge,DivcoWest,Building Permit Granted,,New Construction,Planning Board Special Permit,NP/PUD-6,PB179,BLDC-057377-2017,371433,65502,2.66,Office/R&D,0,None,,334,FAR for overall North Point development. Permanent street address to be assigned by DPW. Portion of building lcoated in Somerville not included.,24 East Street,"(42.371976, -71.075813)",42.371976,-71.075813
630,,95-99 Elmwood Street,95-99,Elmwood Street,North Cambridge,95-99 Elmwood Street LLC,Permit Granted or As of Right,,New Construction,Planning Board Special Permit,BA-2/NMAOD,PB308,N/A,35774,17535,2.24,Residential,34,TBD,,34,Existing auto repair facility will be demolished.  Special permit under appeal.,95 Elmwood Street,"(42.398055, -71.128633)",42.398055,-71.128633
689,First Street Assemblage Parcel D,85 First Street,85,First Street,East Cambridge,Urban Spaces LLC,Permit Granted or As of Right,,New Construction,Planning Board Special Permit,IA-1/BA/PUD-4B,PB231A,N/A,9800,76227,2.35,Retail,0,None,,11,FAR includes earlier phases at 150 First and 65 Bent Streets and 4 buildings in this phase. Project replaces existing commercial structure.,12 Charles Street,"(42.368207, -71.077741)",42.368207,-71.077741
675,MIT Kendall Square Building 4,292 Main Street,292,Main Street,MIT / Area 2,MIT,Building Permit Granted,,New Construction,Planning Board Special Permit,C-3B MXD/PUD 5,PB303,BLDC-065869-2017,426146,89129,4.48,Institutional,454,0,,See note,454 graduate student units. Project includes existing buildings at 290-292 Main St. Permanent street address to be assigned by DPW. Parking at 25 Hayward Street garage. FAR for entire SoMa project.,264 Main Street,"(42.362043, -71.085703)",42.362043,-71.085703
621,,249 Third Street,249,Third Street,East Cambridge,Equity Residential,Building Permit Granted,,New Construction,Planning Board Special Permit,IA-1 ECHO,PB301,BLDM-066649-2017,71917,26918,2.67,Residential,84,12,,59,2 parking spaces on site and 57 accomodated at existing parking facility at 195 Binney Street.,249 Third Street,"(42.366835, -71.082172)",42.366835,-71.082172
617,Columbia Auto Parts Site,305 Webster Avenue,305,Webster Avenue,Wellington Harrington,M & H Realty Trust,Building Permit Granted,,New Construction,Planning Board Special Permit,BA,PB316,BLDC-064166-2017,37510,18140,2.10,Residential,36,4,,35,Project includes demolition of existing auto parts supply building.,305 Webster Avenue,"(42.3735365447, -71.0944007924)",42.3735365447,-71.0944007924
673,Cambridge Crossing Master Plan,Cambridge Crossing Bldg Q1,,Cambridge Crossing Bldg Q1,East Cambridge,DivcoWest,Permit Granted or As of Right,,New Construction,Planning Board Special Permit,NP/PUD-6,PB179,N/A,17675,11584,2.66,Retail,0,None,,0,FAR for overall North Point development. Street address to be determined by DPW.,,"(42.372098, -71.076492)",42.372098,-71.076492
674,Cambridge Crossing Master Plan,Cambridge Crossing Bldg W,,Cambridge Crossing Bldg W,East Cambridge,DivcoWest,Permit Granted or As of Right,,New Construction,Planning Board Special Permit,NP/PUD-6,PB179,N/A,12700,20743,2.66,Retail,0,None,,0,FAR for overall North Point development. Street address to be determined by DPW.,,"(42.37202, -71.075296)",42.37202,-71.075296
624,Nano Building,60 Vassar Street,60,Vassar Street,MIT / Area 2,MIT,Building Permit Granted,,New Construction,Planning Board Special Permit,C-3B,N/A,BLDC-027113-2015,216500,,,Institutional,0,None,,See note,Parking allocated from MIT pool. Infill project located on site of MIT main building complex.,60 Vassar Street,"(42.3609935327, -71.0928134433)",42.3609935327,-71.0928134433
42,,Cambridge Crossing Remaining Master Plan,,Cambridge Crossing Remaining Master Plan,East Cambridge,DivcoWest,Permit Granted or As of Right,,Change of Use,Planning Board Special Permit,NP/PUD-6/PUD-4A,PB179,N/A,3132821,1690876,2.52,Residential,1796,TBD,,See note,"FAR for Cambridge development only. Portions of overall project in Somerville and Boston. Affordable housing contribution, parking spaces, and retail GFA to be determined.",24 East Street,"(42.3721674932999, -71.0731544543999)",42.3721674932999,-71.0731544543999
343,St. James Development,1991-2013 Massachusetts Avenue,1991-2013,Massachusetts Avenue,North Cambridge,Oaktree Development,Permit Granted or As of Right,,Addition,Planning Board Special Permit,BA-2/NMAOD,PB241,N/A,73528,58194,1.75,Residential,46,5,,46,"64 total spaces on-site include 46 spaces for 1991-2013 Mass Ave and 18 spaces for adjacent St. James Church. FAR includes existing 22,560 SF church.",1991 Massachusetts Avenue,"(42.3908306590999, -71.1213666236999)",42.3908306590999,-71.1213666236999
667,St. Patricks,50 York Street,50,York Street,Wellington Harrington,Just-A-Start,Building Permit Granted,,New Construction,Comprehensive Permit,C-1,N/A,BLDM-065327-2017,22417,32535,0.71,Residential,16,16,,See note,Replacement of 16 unit affordable residential building destroyed by fire in 2016 under amendment to 1991 comprehensive permit. 28 parking spaces shared across development with other buildings.,50 York Street,"(42.36958, -71.091979)",42.36958,-71.091979
631,,95 Fawcett Street,95,Fawcett Street,Cambridge Highlands,95 Fawcett LLC,Building Permit Granted,,New Construction,Planning Board Special Permit,O-1/AOD-4,PB309,BLDM-054801-2017,52852,20522,2.58,Residential,44,5,,44,Existing warehouse demolished.,87 Fawcett Street,"(42.392281, -71.146419)",42.392281,-71.146419
649,Concord Wheeler Phase II,579-605 Concord Avenue,579-605,Concord Avenue,Cambridge Highlands,Acorn Holdings,Permit Granted or As of Right,,New Construction,Planning Board Special Permit,"BA, AOD-5",PB319,N/A,57679,21666,2.66,Residential,49,TBD,,68,Includes demolition of existing bank branch building. Parking includes 49 residential and 19 commercial spaces.,579 Concord Avenue,"(42.389202, -71.144878)",42.389202,-71.144878
633,,907 Main Street,907,Main Street,The Port/Area IV,Patrick Barrett,Building Permit Granted,,Alteration/Change of Use,Planning Board Special Permit,BB,PB324,BLDC-053436-2017,29860,9436,3.14,Hotel,0,None,67,0,Conversion/rehab of existing building. Retail and Hotel floor area split estimated. Central Square Advisory Committee provided Large Project Review. Received parking waiver from Planning Board.,907 Main Street,"(42.363657, -71.099619)",42.363657,-71.099619
646,Masse Hardware Parking Lot and Warehouse,253 Walden Street,253,Walden Street,Neighborhood 9,Eric Hoagland,Building Permit Granted,,New Construction,As of Right,BA-4,N/A,BLDC-046326-2016,34265,14102,2.43,Residential,27,3,,27,Includes demolition of existing warehouse.,253 Walden Street,"(42.386236, -71.131409)",42.386236,-71.131409
622,"NoMa - Original Building Phase 2, 3 and 5",1 Broadway,1,Broadway,East Cambridge,MIT,Permit Granted or As of Right,,New Construction,Planning Board Special Permit,"O-3A, PUD-3",PB302,N/A,313269,74736,5.55,Office/R&D,0,None,,293,"FAR includes existing One Broadway and proposed Building 1, including new residential garage. Net increase of 23,150 SF. Garage reduced from 316 to 293 spaces.",1 Broadway,"(42.3627385552, -71.0840144502)",42.3627385552,-71.0840144502
668,Abt Associates Site,55 Wheeler Street,55,Wheeler Street,Cambridge Highlands,55-9 Wheels Owner LLC,Permit Granted or As of Right,,New Construction,Planning Board Special Permit,O1/AOD4,PB330,N/A,563609,249518,2.26,Residential,525,TBD,,448,Project includes replacement of existing office complex.,,"(42.391211, -71.144601)",42.391211,-71.144601
697,Frost Terrace,1791 Massachusetts Avenue,1791,Massachusetts Avenue,Agassiz,Capstone Communities LLC,Permit Granted or As of Right,,New Construction/Alteration,Comprehensive Permit,B,N/A,N/A,40253,22068,1.82,Residential,40,40,,3,Project includes rehab of existing residential structures.,1971 Massachusetts Avenue,"(42.386188, -71.118767)",42.386188,-71.118767
371,50 Rogers Street/Binney St. Alexandria Master Plan,161 First Street,161,First Street,East Cambridge,Alexandria Real Estate,Permit Granted or As of Right,,Addition/Alteration,Planning Board Special Permit,IA-1/PUD-3A,PB243,N/A,162531,40000,3.75,Residential,136,TBD,,120,102 residential parking spaces on site. 18 office spaces at 75/125 Binney and 50/60 Binney Street garages. 161 First Street in renovated office building. 50 Rogers Street new residential building.,161 First Street,"(42.3655945804, -71.0786592824999)",42.3655945804,-71.0786592824999
236,Constellation Theatre/Cambridge Research Park,585 Third Street,585,Third Street,East Cambridge,Constellation,Permit Granted or As of Right,,New Construction,Planning Board Special Permit,O-3/PUD-3,PB141,N/A,75000,35865,2.09,Theater,0,None,,See note,Parking provided in Cambridge Research Park pooled facility.,585 Kendall Street,"(42.3641474380999, -71.0826678014999)",42.3641474380999,-71.0826678014999
660,Lanes & Games,201-203 Concord Turnpike,201-203,Concord Turnpike,North Cambridge,Criterion Development Partners,Building Permit Granted,,New Construction,Planning Board Special Permit,SP-4A,PB326,BLDM-070311-2018,324440,166468,1.95,Residential,320,44,,239,Includes demolition of existing motel and bowling alley.,195 Concord Turnpike,"(42.399565, -71.149098)",42.399565,-71.149098
650,Mass & Main,47 Bishop Allen Drive,47,Bishop Allen Drive,The Port/Area IV,Watermark Central Venture,Building Permit Granted,,New Construction,Planning Board Special Permit,BA/C-1,PB320,BLDM-064722-2017,24531,11893,2.10,Residential,23,3,,12,12 parking spaces located off-site at 65 Bishop Allen Drive.,47 Bishop Allen Drive,"(42.364746, -71.099948)",42.364746,-71.099948
698,Russell Apartments/North Cambridge Senior Center,2050 Massachusetts Avenue,2050,Massachusetts Avenue,North Cambridge,Cambridge Housing Authority,Permit Granted or As of Right,,New Construction/Alteration,Comprehensive Permit,BA-2,N/A,N/A,171,15234,2.90,Residential,1,1,,0,Infill project will insert floor into two story space to create an additional unit in existing building.  No change to existing parking.,2050 Massachusetts Avenue,"(42.390942, -71.122881)",42.390942,-71.122881
701,,140-142 Prospect Street,140-142,Prospect Street,The Port/Area IV,Islamic Society of Cambridge,Permitting,,New Construction,Board of Zoning Appeals,O-1,N/A,N/A,7640,6220,1.23,Residential,5,0,,5,,140 Prospect Street,"(42.36857, -71.101198)",42.36857,-71.101198
404,Gourmet Express Redevelopment,1868 Massachusetts Avenue,1868,Massachusetts Avenue,Neighborhood 9,1868 Mass Ave LLC,Building Permit Granted,,New Construction,Large Project Review,BC/C-1,N/A,BLDC-021553-2014,34848,13325,1.24,Hotel,0,None,50,32,Existing retail building demolished. 47 total on-site spaces include 15 spaces to be used by Lesley University. Was planned for housing.,1868 Massachusetts Avenue,"(42.38789394, -71.1197041621)",42.38789394,-71.1197041621
690,MXD Infill,135 Broadway North,135,Broadway North,East Cambridge,Boston Properties,Permit Granted or As of Right,,New Construction,Planning Board Special Permit,MXD,PB315,N/A,71300,91845,6.27,Residential,70,TBD,,See note,FAR for entire MXD Infill project. Project allocates 0.4 parking spaces per unit in existing Cambridge Center parking facilities.,145 Broadway,"(42.365933, -71.087243)",42.365933,-71.087243
706,Cambridge Center/88 Ames Phase 1,88 Ames Street,88,Ames Street,MIT / Area 2,Boston Properties,Complete,2018,New Construction,Planning Board Special Permit,MXD,PB294,BLDC-038200-2016,110000,16542,13.06,Residential,153,26,,140,Parking accommodated in existing Cambridge Center East Garage. No new spaces constructed. Phase 1 includes all parking.,73 Ames Street,"(42.3631357717, -71.0877519099999)",42.3631357717,-71.0877519099999
705,,36-54 Cambridgepark Drive,36-54,Cambridgepark Drive,North Cambridge,Hanover Company,Permitting,,New Construction,Planning Board Special Permit,O2-A/AOD-6,PB338,N/A,318777,79321,4.02,Residential,299,TBD,,187,"Includes 128,000 SF transfer of development rights from 88 Cambridgepark Drive allowing additional 128 units. Existing structures to be demolished.",36 Cambridgepark Drive,"(42.394409, -71.14386)",42.394409,-71.14386
688,First Street Assemblage Parcel C,22 Hurley Street,22,Hurley Street,East Cambridge,Urban Spaces LLC,Permit Granted or As of Right,,New Construction,Planning Board Special Permit,IA-1/BA/PUD-4B,PB231A,N/A,18502,76227,2.35,Residential,18,TBD,,See note,FAR includes earlier phases at 150 First and 65 Bent Streets and 4 buildings in this phase. 100 garage spaces and 23 surface spaces shared with 107 First St/Parcel B.,12 Charles Street,"(42.367901, -71.078618)",42.367901,-71.078618
700,Mass & Main,25 Columbia Street,25,Columbia Street,The Port/Area IV,Watermark Central Venture,Building Permit Granted,,New Construction,Planning Board Special Permit,BB/BA/C-1,PB321,BLDC-068516-2018,65000,2776,6.50,Residential,60,13,,See note,Parking included with 415 Massachusetts Avenue. FAR for entire project.,25 Columbia Street,"(42.364098, -71.099726)",42.364098,-71.099726
704,University Monument Site,1043-1059 Cambridge Street,1043-1059,Cambridge Street,Wellington Harrington,418 Real Estate,Permitting,,New Construction,Planning Board Special Permit,BA/C-2B,PB336,N/A,26376,15686,1.68,Residential,18,TBD,,13,Incldues demolition of existing warehouse and retail structures,1043 Cambridge Street,"(42.37321, -71.094873)",42.37321,-71.094873
635,Basement Housing,18-26 Chauncy Street,18-26,Chauncy Street,Neighborhood 9,Chestnut Hill Realty,Building Permit Granted,,Alteration,Planning Board Special Permit,C-2/A-1/BAOD,PB311,BLDM-071904-2018,11152,28027,2.87,Residential,9,1,,0,Conversion of existing basement space to add residential units to existing 98 unit building.,18 Chauncy Street,"(42.379186, -71.122874)",42.379186,-71.122874
656,First Street Assemblage Parcel A,121 First Street,121,First Street,East Cambridge,Urban Spaces LLC,Building Permit Granted,,New Construction,Planning Board Special Permit,IA-1/BA/PUD-4B,PB231A,BLDC-052710-2017,56691,16500,2.35,Office/R&D,0,None,,52,FAR includes earlier phases at 150 First and 65 Bent Streets and 4 buildings in this phase.  Parking includes 10 spaces on site and 42 at 107 First St garage. Replaces existing commercial structure.,131 First Street,"(42.366802, -71.07801)",42.366802,-71.07801
691,MXD Infill,135 Broadway South,135,Broadway South,East Cambridge,Boston Properties,Permit Granted or As of Right,,New Construction,Planning Board Special Permit,MXD,PB315,N/A,350000,91845,6.27,Residential,355,TBD,,See note,FAR for entire MXD Infill project. Project allocates 0.4 parking spaces per unit in existing Cambridge Center parking facilities.,145 Broadway,"(42.365019, -71.087988)",42.365019,-71.087988
666,,671-675 Concord Avenue,671-675,Concord Avenue,Cambridge Highlands,HRI,Building Permit Granted,,New Construction,Comprehensive Permit,,N/A,BLDM-072847-2018,124027,48186,2.89,Residential,98,98,,67,Includes replacement of commercial structures.,675 Concord Avenue,"(42.390327, -71.150227)",42.390327,-71.150227
696,1 JFK Street/Abbott Building/Corcoran Building,24 Brattle Street,24,Brattle Street,West Cambridge,Regency Centers,Permit Granted or As of Right,,Addition/Alteration,Planning Board Special Permit,BB,PB334,N/A,71447,15850,4.00,Retail,0,None,,0,"Total project area is 71,447 but applicant received exemption of basement space from GFA, leaving 63,400 square feet counted toward FAR.",1 JFK Street,"(42.373283, -71.119775)",42.373283,-71.119775
632,Changsho Parking Lot,1699 Massachusetts Avenue,1699,Massachusetts Avenue,Agassiz,Lotus Harvard Enterprise,Permit Granted or As of Right,,New Construction,Board of Zoning Appeals,BA-2/B/NMAOD,N/A,N/A,18611,13044,2.26,Residential,17,2,,20,Project includes 16 units in multifamily structure and single famly at rear of parcel.  Formerly used as parking lot.,1699 Massachusetts Avenue,"(42.383105, -71.119193)",42.383105,-71.119193
692,New MIT Undergraduate Dormitory,121-169 Vassar Street,121-169,Vassar Street,MIT / Area 2,MIT,Permit Granted or As of Right,,New Construction,Planning Board Special Permit,SD-6,PB332,N/A,155978,765106,1.53,Institutional,16,None,,See note,FAR based on larger parcel. 450 undergraduate dormitory beds. 16 student/staff apartments. 372 space garage and 38 surface spaces removed. Some replaced in MIT pool. No parking for this building.,121 Vassar Street,"(42.359082, -71.097566)",42.359082,-71.097566
295,Ava/Avalon Bay Housing Phase 2 Incl. 5 Glassworks,2 Leighton Street,2,Leighton Street,East Cambridge,Avalon Bay,Complete,,New Construction,Planning Board Special Permit,NP/PUD-6,PB175,BLDM-042391-2016,241779,247431,3.77,Residential,265,31,,212,FAR includes Phase I building and 10 Glassworks Avenue. Unknown amount of retail space will included in building.,2 Leighton Street,"(42.3703935998, -71.0744786365)",42.3703935998,-71.0744786365
651,Mass & Main,415 Massachusetts Avenue,415,Massachusetts Avenue,The Port/Area IV,Watermark Central Venture,Building Permit Granted,,New Construction,Planning Board Special Permit,BB/BA/C-1,PB321,BLDC-071299-2018,196534,38773,6.50,Residential,225,45,,125,"86 parking spaces below grade on-site. 39 off-site at 65 Bishop Allen Dr. 5 spaces for car-sharing. 14,479 GFA retail exempt from FAR. 25 Columbia St. has separate permit.",415 Massachusetts Avenue,"(42.363746, -71.100256)",42.363746,-71.100256
384,Garage B/Discovery Park Master Plan,40 Acorn Park,40,Acorn Park,North Cambridge,Bulfinch Company,Building Permit Granted,,New Construction,Planning Board Special Permit,SD-4,PB198,BLDC-072303-2018,141745,1154420,0.61,Parking Garage,0,None,,380,Above ground garage not counted toward Discovery Park FAR.  Parking services multiple buildings at Discovery Park.,15 Acorn Park Drive,"(42.3989313956999, -71.1477676227)",42.3989313956999,-71.1477676227
379,First Street Assemblage Parcel B,107 First Street,107,First Street,East Cambridge,Urban Spaces LLC,Permit Granted or As of Right,,New Construction,Planning Board Special Permit,IA-1/BA/PUD-4B,PB231A,N/A,117223,76227,2.35,Residential,118,TBD,,See note,FAR includes prior phases. 142 space underground garage includes 42 spaces for 121 First St/Parcel A. 100 garage spaces and 23 surface spaces shared with 22 Hurley St/Parcel C.,12 Charles Street,"(42.367661, -71.07792)",42.367661,-71.07792
695,Squirrelwood,261 Broadway,261,Broadway,The Port/Area IV,Just-A-Start Corporation,Permit Granted or As of Right,,New Construction,Comprehensive Permit,C-1,N/A,N/A,24852,59638,1.36,Residential,23,23,,See note,"Construction of new units at Linwood Court site. Project adds 4 parking spaces to pool.  There will be 45 spaces for 88 units, including nearby Squirrel Brand Apartments.",261 Broadway,"(42.368123, -71.096617)",42.368123,-71.096617
684,NoMa - New Building Phase 4,1 Broadway,1,Broadway,East Cambridge,MIT,Building Permit Granted,,New Construction,Planning Board Special Permit,"O-3A, PUD-3",PB302,N/A,325000,41536,5.55,Residential,295,TBD,,150,"FAR includes One Broadway and new Building 1, including new garage. Podium for housing underway. Separate bldg. permit forthcoming for housing. Project area south of Main Street permitted separately.",1 Broadway,"(42.3627385552, -71.0840144502)",42.3627385552,-71.0840144502
627,Jefferson Park,1-6 Jefferson Park,1-6,Jefferson Park,North Cambridge,Cambridge Housing Authority,Complete,2018,Alteration,Comprehensive Permit,B,N/A,BLDM-034930-2015,69388,457992,0.32,Residential,104,104,,74,"Demolition and replacement of state-assisted public housing units at Jefferson Park, a Cambridge Housing Authority development.",1 Jackson Place,"(42.3930969, -71.13624788)",42.3930969,-71.13624788
669,EF Building 3 including Student Housing,10 North Point Boulevard,10,North Point Boulevard,East Cambridge,"EFEKTRA Schools, Inc",Building Permit Granted,,New Construction,Planning Board Special Permit,,PB328,BLDC-071000-2018,228354,125000,2.40,Institutional,140,0,,110,Current use is as DCR storage yard. 140 student units and 138 dorm rooms are preliminary estimates. Not subject to inclusionary zoning requirement.,,"(42.371033, -71.070715)",42.371033,-71.070715
607,Cambridge Center/88 Ames Phase 2,88 Ames Street,88,Ames Street,MIT / Area 2,Boston Properties,Building Permit Granted,,New Construction,Planning Board Special Permit,MXD,PB294,BLDC-038200-2016,106000,16542,13.06,Residential,127,10,,0,Parking accommodated in existing Cambridge Center East Garage. No new spaces constructed. All parking in Phase 1.,73 Ames Street,"(42.3631357717, -71.0877519099999)",42.3631357717,-71.0877519099999
685,Basement Units,3-5 Linnaean Street,3-5,Linnaean Street,Neighborhood 9,Wullow Land Corporation,Permit Granted or As of Right,,Alteration,Planning Board Special Permit,C-2/BA-2,PB329,N/A,1500,24153,2.10,Residential,5,TBD,,0,"Conversion of existing underutilized basement space into housing. GFA is for entire existing building, not project area.",3 Linnaean Street,"(42.384951, -71.120093)",42.384951,-71.120093
