Project ID,Address,Street Number,Street Name,Project Stage,Year Complete,Use Type,GFA,LatLong,Latitude,Longitude
372,41 Linskey Way,41,Linskey Way,Permit Granted or As of Right,,Office/R&D,10000,"(42.3649674983999, -71.0802266967999)",42.3649674983999,-71.0802266967999
620,16-18 Eliot Street,16-18,Eliot Street,Permit Granted or As of Right,,Residential,11935,"(42.372122, -71.121391)",42.372122,-71.121391
343,1991-2013 Massachusetts Avenue,1991-2013,Massachusetts Avenue,Permit Granted or As of Right,,Residential,72287,"(42.3908306590999, -71.1213666236999)",42.3908306590999,-71.1213666236999
403,40 Thorndike Street,40,Thorndike Street,Permit Granted or As of Right,,Residential,24066,"(42.36922588, -71.0796096299999)",42.36922588,-71.0796096299999
395,262 Msgr. O'Brien Highway,262,Msgr. O'Brien Highway,Building Permit Granted,,Residential,64222,"(42.3734405177999, -71.0819208536999)",42.3734405177999,-71.0819208536999
343,1991-2013 Massachusetts Avenue,1991-2013,Massachusetts Avenue,Permit Granted or As of Right,,Retail,1241,"(42.3908306590999, -71.1213666236999)",42.3908306590999,-71.1213666236999
602,57 JFK Street,57,JFK Street,Permit Granted or As of Right,,Office/R&D,18351,"(42.372217, -71.120812)",42.372217,-71.120812
403,40 Thorndike Street,40,Thorndike Street,Permit Granted or As of Right,,Office/R&D,452237,"(42.36922588, -71.0796096299999)",42.36922588,-71.0796096299999
630,95-99 Elmwood Street,95-99,Elmwood Street,Permit Granted or As of Right,,Retail,480,"(42.398055, -71.128633)",42.398055,-71.128633
372,41 Linskey Way,41,Linskey Way,Permit Granted or As of Right,,Retail,6189,"(42.3649674983999, -71.0802266967999)",42.3649674983999,-71.0802266967999
607,88 Ames Street,88,Ames Street,Building Permit Granted,,Retail,16000,"(42.3631357717, -71.0877519099999)",42.3631357717,-71.0877519099999
648,300 Putnam Avenue,300,Putnam Avenue,Permit Granted or As of Right,,Residential,23254,"(42.361989, -71.113278)",42.361989,-71.113278
649,579-605 Concord Avenue,579-605,Concord Avenue,Permit Granted or As of Right,,Residential,53551,"(42.389202, -71.144878)",42.389202,-71.144878
630,95-99 Elmwood Street,95-99,Elmwood Street,Permit Granted or As of Right,,Residential,35294,"(42.398055, -71.128633)",42.398055,-71.128633
649,579-605 Concord Avenue,579-605,Concord Avenue,Permit Granted or As of Right,,Retail,4128,"(42.389202, -71.144878)",42.389202,-71.144878
655,25 Hayward Street,25,Hayward Street,Building Permit Granted,,Parking Garage,0,"(42.361172, -71.085335)",42.361172,-71.085335
408,10 Essex Street,10,Essex Street,Building Permit Granted,,Residential,48319,"(42.3654694824, -71.1025378476)",42.3654694824,-71.1025378476
656,121 First Street,121,First Street,Building Permit Granted,,Retail,9800,"(42.366802, -71.07801)",42.366802,-71.07801
631,95 Fawcett Street,95,Fawcett Street,Building Permit Granted,,Residential,52852,"(42.392281, -71.146419)",42.392281,-71.146419
408,10 Essex Street,10,Essex Street,Building Permit Granted,,Retail,4014,"(42.3654694824, -71.1025378476)",42.3654694824,-71.1025378476
381,30 Acorn Park,30,Acorn Park,Building Permit Granted,,Office/R&D,126618,"(42.3981808077, -71.1477991777999)",42.3981808077,-71.1477991777999
605,80-84 Cambridgepark Drive,80-84,Cambridgepark Drive,Building Permit Granted,,Residential,290600,"(42.3933390102999, -71.1439127364999)",42.3933390102999,-71.1439127364999
677,84 Wadsworth Street,84,Wadsworth Street,Permit Granted or As of Right,,Office/R&D,300000,"(42.361824, -71.084035)",42.361824,-71.084035
644,1336-1362 Massachusetts Avenue,1336-1362,Massachusetts Avenue,Building Permit Granted,,Institutional,95000,"(42.372708, -71.118836)",42.372708,-71.118836
404,1868 Massachusetts Avenue,1868,Massachusetts Avenue,Building Permit Granted,,Retail,2363,"(42.38789394, -71.1197041621)",42.38789394,-71.1197041621
622,1 Broadway,1,Broadway,Permit Granted or As of Right,,Office/R&D,305074,"(42.3627385552, -71.0840144502)",42.3627385552,-71.0840144502
683,380 Main Street,380,Main Street,Permit Granted or As of Right,,Retail,13200,"(42.362329, -71.087586)",42.362329,-71.087586
637,35 Cambridgepark Drive,35,Cambridgepark Drive,Building Permit Granted,,Office/R&D,177274,"(42.394959, -71.143467)",42.394959,-71.143467
633,907 Main Street,907,Main Street,Building Permit Granted,,Retail,5623,"(42.363657, -71.099619)",42.363657,-71.099619
677,84 Wadsworth Street,84,Wadsworth Street,Permit Granted or As of Right,,Retail,18000,"(42.361824, -71.084035)",42.361824,-71.084035
637,35 Cambridgepark Drive,35,Cambridgepark Drive,Building Permit Granted,,Retail,7500,"(42.394959, -71.143467)",42.394959,-71.143467
679,238 Main Street,238,Main Street,Permit Granted or As of Right,,Retail,33528,"(42.362093, -71.084705)",42.362093,-71.084705
659,263 Msgr. O'Brien Highway,263,Msgr. O'Brien Highway,Permit Granted or As of Right,,Hotel,23221,"(42.373752, -71.081546)",42.373752,-71.081546
634,399 Binney Street,399,Binney Street,Building Permit Granted,,Office/R&D,169950,"(42.367769, -71.090518)",42.367769,-71.090518
382,20 Acorn Park,20,Acorn Park,Building Permit Granted,,Office/R&D,132000,"(42.3983003999, -71.1471004934)",42.3983003999,-71.1471004934
407,75-77 New Street,75-77,New Street,Building Permit Granted,,Residential,92800,"(42.3889398492, -71.1401582515999)",42.3889398492,-71.1401582515999
679,238 Main Street,238,Main Street,Permit Granted or As of Right,,Office/R&D,346673,"(42.362093, -71.084705)",42.362093,-71.084705
634,399 Binney Street,399,Binney Street,Building Permit Granted,,Retail,2550,"(42.367769, -71.090518)",42.367769,-71.090518
605,80-84 Cambridgepark Drive,80-84,Cambridgepark Drive,Building Permit Granted,,Retail,1800,"(42.3933390102999, -71.1439127364999)",42.3933390102999,-71.1439127364999
671,24 East Street,24,East Street,Building Permit Granted,,Retail,14055,"(42.371976, -71.075813)",42.371976,-71.075813
671,24 East Street,24,East Street,Building Permit Granted,,Office/R&D,357378,"(42.371976, -71.075813)",42.371976,-71.075813
690,135 Broadway North,135,Broadway North,Permit Granted or As of Right,,Residential,70000,"(42.365933, -71.087243)",42.365933,-71.087243
622,1 Broadway,1,Broadway,Permit Granted or As of Right,,Retail,8195,"(42.3627385552, -71.0840144502)",42.3627385552,-71.0840144502
633,907 Main Street,907,Main Street,Building Permit Granted,,Hotel,24237,"(42.363657, -71.099619)",42.363657,-71.099619
653,250 Binney Street,250,Binney Street,Permit Granted or As of Right,,Retail,8029,"(42.365916, -71.086427)",42.365916,-71.086427
653,250 Binney Street,250,Binney Street,Permit Granted or As of Right,,Office/R&D,310615,"(42.365916, -71.086427)",42.365916,-71.086427
617,305 Webster Avenue,305,Webster Avenue,Building Permit Granted,,Residential,35964,"(42.3735365447, -71.0944007924)",42.3735365447,-71.0944007924
681,314 Main Street,314,Main Street,Permit Granted or As of Right,,Retail,12858,"(42.362222, -71.086631)",42.362222,-71.086631
691,135 Broadway South,135,Broadway South,Permit Granted or As of Right,,Residential,350000,"(42.365019, -71.087988)",42.365019,-71.087988
689,85 First Street,85,First Street,Permit Granted or As of Right,,Retail,9800,"(42.368207, -71.077741)",42.368207,-71.077741
617,305 Webster Avenue,305,Webster Avenue,Building Permit Granted,,Retail,1546,"(42.3735365447, -71.0944007924)",42.3735365447,-71.0944007924
670,145 Broadway,145,Broadway,Building Permit Granted,,Retail,10037,"(42.364928, -71.088871)",42.364928,-71.088871
379,107 First Street,107,First Street,Permit Granted or As of Right,,Retail,14800,"(42.367661, -71.07792)",42.367661,-71.07792
670,145 Broadway,145,Broadway,Building Permit Granted,,Office/R&D,443731,"(42.364928, -71.088871)",42.364928,-71.088871
686,1 Broadway,1,Broadway,Building Permit Granted,,Retail,26200,"(42.3627385552, -71.0840144502)",42.3627385552,-71.0840144502
681,314 Main Street,314,Main Street,Permit Granted or As of Right,,Office/R&D,359252,"(42.362222, -71.086631)",42.362222,-71.086631
656,121 First Street,121,First Street,Building Permit Granted,,Office/R&D,46891,"(42.366802, -71.07801)",42.366802,-71.07801
379,107 First Street,107,First Street,Permit Granted or As of Right,,Residential,102423,"(42.367661, -71.07792)",42.367661,-71.07792
690,135 Broadway North,135,Broadway North,Permit Granted or As of Right,,Retail,1300,"(42.365933, -71.087243)",42.365933,-71.087243
688,22 Hurley Street,22,Hurley Street,Permit Granted or As of Right,,Residential,18502,"(42.367901, -71.078618)",42.367901,-71.078618
624,60 Vassar Street,60,Vassar Street,Building Permit Granted,,Institutional,216500,"(42.3609935327, -71.0928134433)",42.3609935327,-71.0928134433
652,850 Cambridge Street,850,Cambridge Street,Building Permit Granted,,Institutional,233862,"(42.372, -71.091124)",42.372,-71.091124
650,47 Bishop Allen Drive,47,Bishop Allen Drive,Building Permit Granted,,Residential,24531,"(42.364746, -71.099948)",42.364746,-71.099948
674,Cambridge Crossing Bldg W,,Cambridge Crossing Bldg W,Permit Granted or As of Right,,Retail,12700,"(42.37202, -71.075296)",42.37202,-71.075296
675,292 Main Street,292,Main Street,Building Permit Granted,,Institutional,405538,"(42.362043, -71.085703)",42.362043,-71.085703
673,Cambridge Crossing Bldg Q1,,Cambridge Crossing Bldg Q1,Permit Granted or As of Right,,Office/R&D,9567,"(42.372098, -71.076492)",42.372098,-71.076492
621,249 Third Street,249,Third Street,Building Permit Granted,,Retail,1540,"(42.366835, -71.082172)",42.366835,-71.082172
42,Cambridge Crossing Remaining Master Plan,,Cambridge Crossing Remaining Master Plan,Permit Granted or As of Right,,Retail,36268,"(42.3721674932999, -71.0731544543999)",42.3721674932999,-71.0731544543999
673,Cambridge Crossing Bldg Q1,,Cambridge Crossing Bldg Q1,Permit Granted or As of Right,,Retail,8108,"(42.372098, -71.076492)",42.372098,-71.076492
621,249 Third Street,249,Third Street,Building Permit Granted,,Residential,70377,"(42.366835, -71.082172)",42.366835,-71.082172
646,253 Walden Street,253,Walden Street,Building Permit Granted,,Retail,1549,"(42.386236, -71.131409)",42.386236,-71.131409
646,253 Walden Street,253,Walden Street,Building Permit Granted,,Residential,32716,"(42.386236, -71.131409)",42.386236,-71.131409
42,Cambridge Crossing Remaining Master Plan,,Cambridge Crossing Remaining Master Plan,Permit Granted or As of Right,,Office/R&D,992315,"(42.3721674932999, -71.0731544543999)",42.3721674932999,-71.0731544543999
675,292 Main Street,292,Main Street,Building Permit Granted,,Retail,20608,"(42.362043, -71.085703)",42.362043,-71.085703
42,Cambridge Crossing Remaining Master Plan,,Cambridge Crossing Remaining Master Plan,Permit Granted or As of Right,,Residential,2104238,"(42.3721674932999, -71.0731544543999)",42.3721674932999,-71.0731544543999
404,1868 Massachusetts Avenue,1868,Massachusetts Avenue,Building Permit Granted,,Hotel,32485,"(42.38789394, -71.1197041621)",42.38789394,-71.1197041621
667,50 York Street,50,York Street,Building Permit Granted,,Residential,22417,"(42.36958, -71.091979)",42.36958,-71.091979
668,55 Wheeler Street,55,Wheeler Street,Permit Granted or As of Right,,Residential,563609,"(42.391211, -71.144601)",42.391211,-71.144601
701,140-142 Prospect Street,140-142,Prospect Street,Permitting,,Residential,7640,"(42.36857, -71.101198)",42.36857,-71.101198
236,585 Third Street,585,Third Street,Permit Granted or As of Right,,Theater,75000,"(42.3641474380999, -71.0826678014999)",42.3641474380999,-71.0826678014999
692,121-169 Vassar Street,121-169,Vassar Street,Permit Granted or As of Right,,Institutional,155978,"(42.359082, -71.097566)",42.359082,-71.097566
700,25 Columbia Street,25,Columbia Street,Building Permit Granted,,Residential,65000,"(42.364098, -71.099726)",42.364098,-71.099726
632,1699 Massachusetts Avenue,1699,Massachusetts Avenue,Permit Granted or As of Right,,Retail,1638,"(42.383105, -71.119193)",42.383105,-71.119193
660,201-203 Concord Turnpike,201-203,Concord Turnpike,Building Permit Granted,,Residential,324440,"(42.399565, -71.149098)",42.399565,-71.149098
371,161 First Street,161,First Street,Permit Granted or As of Right,,Office/R&D,30300,"(42.3655945804, -71.0786592824999)",42.3655945804,-71.0786592824999
697,1791 Massachusetts Avenue,1791,Massachusetts Avenue,Permit Granted or As of Right,,Residential,40253,"(42.386188, -71.118767)",42.386188,-71.118767
695,261 Broadway,261,Broadway,Permit Granted or As of Right,,Residential,24852,"(42.368123, -71.096617)",42.368123,-71.096617
632,1699 Massachusetts Avenue,1699,Massachusetts Avenue,Permit Granted or As of Right,,Residential,16973,"(42.383105, -71.119193)",42.383105,-71.119193
384,40 Acorn Park,40,Acorn Park,Building Permit Granted,,Parking Garage,141745,"(42.3989313956999, -71.1477676227)",42.3989313956999,-71.1477676227
698,2050 Massachusetts Avenue,2050,Massachusetts Avenue,Permit Granted or As of Right,,Residential,171,"(42.390942, -71.122881)",42.390942,-71.122881
371,161 First Street,161,First Street,Permit Granted or As of Right,,Residential,132231,"(42.3655945804, -71.0786592824999)",42.3655945804,-71.0786592824999
295,2 Leighton Street,2,Leighton Street,Complete,,Residential,241779,"(42.3703935998, -71.0744786365)",42.3703935998,-71.0744786365
705,36-54 Cambridgepark Drive,36-54,Cambridgepark Drive,Permitting,,Residential,311785,"(42.394409, -71.14386)",42.394409,-71.14386
696,24 Brattle Street,24,Brattle Street,Permit Granted or As of Right,,Retail,37506,"(42.373283, -71.119775)",42.373283,-71.119775
684,1 Broadway,1,Broadway,Building Permit Granted,,Residential,315400,"(42.3627385552, -71.0840144502)",42.3627385552,-71.0840144502
669,10 North Point Boulevard,10,North Point Boulevard,Building Permit Granted,,Institutional,228354,"(42.371033, -71.070715)",42.371033,-71.070715
705,36-54 Cambridgepark Drive,36-54,Cambridgepark Drive,Permitting,,Retail,6992,"(42.394409, -71.14386)",42.394409,-71.14386
685,3-5 Linnaean Street,3-5,Linnaean Street,Permit Granted or As of Right,,Residential,1500,"(42.384951, -71.120093)",42.384951,-71.120093
361,34-36 Hampshire Street,34-36,Hampshire Street,Expired,,Residential,20940,"(42.3662298416, -71.0920099069)",42.3662298416,-71.0920099069
361,34-36 Hampshire Street,34-36,Hampshire Street,Expired,,Office/R&D,360,"(42.3662298416, -71.0920099069)",42.3662298416,-71.0920099069
651,415 Massachusetts Avenue,415,Massachusetts Avenue,Building Permit Granted,,Retail,17279,"(42.363746, -71.100256)",42.363746,-71.100256
627,1-6 Jefferson Park,1-6,Jefferson Park,Complete,2018,Residential,69388,"(42.3930969, -71.13624788)",42.3930969,-71.13624788
651,415 Massachusetts Avenue,415,Massachusetts Avenue,Building Permit Granted,,Residential,179255,"(42.363746, -71.100256)",42.363746,-71.100256
706,88 Ames Street,88,Ames Street,Complete,2018,Residential,110000,"(42.3631357717, -71.0877519099999)",42.3631357717,-71.0877519099999
666,671-675 Concord Avenue,671-675,Concord Avenue,Building Permit Granted,,Residential,124027,"(42.390327, -71.150227)",42.390327,-71.150227
684,1 Broadway,1,Broadway,Building Permit Granted,,Retail,9600,"(42.3627385552, -71.0840144502)",42.3627385552,-71.0840144502
696,24 Brattle Street,24,Brattle Street,Permit Granted or As of Right,,Office/R&D,33941,"(42.373283, -71.119775)",42.373283,-71.119775
607,88 Ames Street,88,Ames Street,Building Permit Granted,,Residential,90000,"(42.3631357717, -71.0877519099999)",42.3631357717,-71.0877519099999
635,18-26 Chauncy Street,18-26,Chauncy Street,Building Permit Granted,,Residential,11152,"(42.379186, -71.122874)",42.379186,-71.122874
704,1043-1059 Cambridge Street,1043-1059,Cambridge Street,Permitting,,Residential,21812,"(42.37321, -71.094873)",42.37321,-71.094873
