ProjectID,Address,Street Number,Street Name,Project Stage,Year Complete,Use Type,GFA
628,165 Cambridgepark Drive,165,Cambridgepark Drive,Complete,2015,Residential,168000
629,35 Cottage Park Avenue,35,Cottage Park Avenue,Complete,2015,Residential,69926
629,35 Cottage Park Avenue,35,Cottage Park Avenue,Complete,2015,Utilities,461
2,0 Arrow Street,0,Arrow Street,Complete,2004,Office/R&D,15932
2,0 Arrow Street,0,Arrow Street,Complete,2004,Theater,32292
4,35 Landsdowne Street,35,Landsdowne Street,Complete,2002,Office/R&D,221561
5,88 Sidney Street,88,Sidney Street,Complete,2002,Office/R&D,154978
6,300 Technology Square,300,Technology Square,Complete,2002,Office/R&D,118621
9,273 First Street,273,First Street,Complete,2008,Utilities,11800
11,100 Landsdowne Street,100,Landsdowne Street,Complete,2005,Residential,236000
12,80 Landsdowne Street,80,Landsdowne Street,Complete,2002,Parking Garage,0
13,187-199 Msgr. O'Brien Highway,187-199,Msgr. O'Brien Highway,Complete,2002,Hotel,51919
14,91 Sidney Street,91,Sidney Street,Complete,2002,Residential,156000
15,25 Land Boulevard,25,Land Boulevard,Complete,2003,Hotel,154000
18,300 Bent Street,300,Bent Street,Complete,2003,Telecommunications,91980
19,40 Landsdowne Street,40,Landsdowne Street,Complete,2002,Office/R&D,228184
21,7 Cambridge Center,7,Cambridge Center,Complete,2006,Parking Garage,0
21,7 Cambridge Center,7,Cambridge Center,Complete,2006,Office/R&D,176600
21,7 Cambridge Center,7,Cambridge Center,Complete,2006,Retail,15300
21,7 Cambridge Center,7,Cambridge Center,Complete,2006,Light Industry/Storage Facility,2196
22,600 Technology Square,600,Technology Square,Complete,2002,Office/R&D,132591
23,700 Technology Square,700,Technology Square,Complete,2002,Office/R&D,54376
24,301 Binney Street,301,Binney Street,Complete,2007,Office/R&D,268779
25,1167 Cambridge Street,1167,Cambridge Street,Complete,2002,Residential,9000
25,1167 Cambridge Street,1167,Cambridge Street,Complete,2002,Community Center,4500
26,28 Osborn Street,28,Osborn Street,Complete,2002,Office/R&D,182031
27,320 Charles Street,320,Charles Street,Complete,2005,Office/R&D,9600
28,68 Bolton Street,68,Bolton Street,Complete,2005,Residential,0
29,254 Massachusetts Avenue,254,Massachusetts Avenue,Complete,2004,Office/R&D,484072
32,265 Rindge Avenue,265,Rindge Avenue,Complete,2003,Residential,5794
33,1 Leighton Street,1,Leighton Street,Complete,2008,Residential,426000
34,55-99 Columbia Street,55-99,Columbia Street,Complete,2003,Residential,0
37,369 Franklin Street,369,Franklin Street,Complete,2004,Residential,21500
39,157-179 Pleasant Street,157-179,Pleasant Street,Complete,2003,Residential,160000
41,1 Hampshire Street,1,Hampshire Street,Complete,2006,Office/R&D,156700
45,1979 Massachusetts Avenue,1979,Massachusetts Avenue,Complete,2008,Residential,13900
48,650 Concord Avenue,650,Concord Avenue,Complete,2004,Nursing Home,49730
49,47 Bishop Allen Drive,47,Bishop Allen Drive,Complete,2004,Parking Garage,11036
50,52 Oxford Street,52,Oxford Street,Complete,2005,Parking Garage,328701
51,303 Third Street,303,Third Street,Complete,2009,Retail,9553
52,146-152 Prospect Street,146-152,Prospect Street,Complete,2005,Residential,16204
226,675 West Kendall Street,675,West Kendall Street,Complete,2004,Office/R&D,232923
226,675 West Kendall Street,675,West Kendall Street,Complete,2004,Retail,12303
227,650 East Kendall Street,650,East Kendall Street,Complete,2010,Office/R&D,204831
227,650 East Kendall Street,650,East Kendall Street,Complete,2010,Retail,12567
229,500 Kendall Street,500,Kendall Street,Complete,2003,Office/R&D,275513
232,250 Kendall Street,250,Kendall Street,Complete,2013,Residential,139659
232,250 Kendall Street,250,Kendall Street,Complete,2013,Retail,9290
233,350 Kendall Street,350,Kendall Street,Complete,2002,Parking Garage,2000
234,450 Kendall Street,450,Kendall Street,Complete,2015,Office/R&D,46809
234,450 Kendall Street,450,Kendall Street,Complete,2015,Retail,6191
235,23 Sidney Street,23,Sidney Street,Complete,2005,Residential,45000
235,23 Sidney Street,23,Sidney Street,Complete,2005,Retail,1000
237,100 Technology Square,100,Technology Square,Complete,2003,Office/R&D,347500
240,449 Broadway,449,Broadway,Complete,2010,Government,102210
245,60 Aberdeen Avenue,60,Aberdeen Avenue,Complete,2005,Residential,63658
248,113 Richdale Avenue,113,Richdale Avenue,Complete,2007,Residential,29775
249, Grant & Cowperthwaite Streets / Harvard Housing,,Grant & Cowperthwaite Streets / Harvard Housing,Complete,2007,Residential,126765
250,870-888 Memorial Drive,870-888,Memorial Drive,Complete,2008,Residential,140652
251,120 Rindge Avenue,120,Rindge Avenue,Complete,2013,Residential,35154
252,21 Brookline Street,21,Brookline Street,Complete,2008,Residential,40755
258,1 Earhart Street,1,Earhart Street,Complete,2008,Residential,113955
259,2 Earhart Street,2,Earhart Street,Complete,2008,Residential,236223
260,100 Discovery Park,100,Discovery Park,Complete,2005,Office/R&D,158007
261,350 Third Street,350,Third Street,Complete,2006,Residential,357000
263,2377-2399 Massachusetts Avenue,2377-2399,Massachusetts Avenue,Complete,2006,Residential,55854
264,390 Rindge Avenue,390,Rindge Avenue,Complete,2006,Residential,10662
266,1 Russell Street,1,Russell Street,Complete,2007,Residential,32023
267,773 Concord Avenue,773,Concord Avenue,Complete,2006,Residential,31359
268,320 Bent Street,320,Bent Street,Complete,2000,Office/R&D,195966
270,157 Sixth Street,157,Sixth Street,Complete,2004,Residential,41349
272,110 Second Street,110,Second Street,Complete,2007,Residential,37729
273,250 Massachusetts Avenue,250,Massachusetts Avenue,Complete,2006,Office/R&D,65319
273,250 Massachusetts Avenue,250,Massachusetts Avenue,Complete,2006,Retail,0
274,75 Ames Street,75,Ames Street,Complete,2014,Office/R&D,246000
274,75 Ames Street,75,Ames Street,Complete,2014,Restaurant,4000
276,18-24 Bay State Road,18-24,Bay State Road,Complete,2007,Residential,24000
278,280-290 River Street,280-290,River Street,Complete,2009,Residential,22418
279,2440 Massachusetts Avenue,2440,Massachusetts Avenue,Complete,2007,Residential,40000
281,95 Harvey Street,95,Harvey Street,Complete,2010,Residential,9973
281,95 Harvey Street,95,Harvey Street,Complete,2010,Light Industry/Storage Facility,3766
282,25-45 Blackstone Street,25-45,Blackstone Street,Complete,2007,Residential,41783
283,20 Cpl. McTernan Street,20,Cpl. McTernan Street,Complete,2008,Residential,42059
284,2101-2103 Massachusetts Avenue,2101-2103,Massachusetts Avenue,Complete,2007,Residential,7800
285,37 Wheeler Street,37,Wheeler Street,Complete,2008,Residential,57500
287,2495 Massachusetts Avenue,2495,Massachusetts Avenue,Complete,2006,Residential,18425
292,199-209 Columbia Street,199-209,Columbia Street,Complete,2007,Residential,13241
298,479 Concord Avenue,479,Concord Avenue,Complete,2008,Residential,3700
303,72 Hamilton Street,72,Hamilton Street,Complete,2010,Residential,15343
305,239-241 Prospect Street,239-241,Prospect Street,Complete,2008,Residential,9600
306,688 Huron Avenue,688,Huron Avenue,Complete,2009,Community Center,31000
307,125-127 Harvard Street,125-127,Harvard Street,Complete,2009,Residential,37213
308,182-190 Prospect Street,182-190,Prospect Street,Complete,2008,Residential,9274
309,823 Main Street,823,Main Street,Complete,2009,Residential,13356
311,424-430 Windsor Street,424-430,Windsor Street,Complete,2012,Residential,20856
312,159 First Street,159,First Street,Complete,2015,Residential,122200
312,159 First Street,159,First Street,Complete,2015,Retail,3800
315,220 Alewife Brook Parkway,220,Alewife Brook Parkway,Complete,2009,Hotel,57759
316,124 Rindge Avenue,124,Rindge Avenue,Complete,2014,Residential,21189
317,355 Fresh Pond Parkway,355,Fresh Pond Parkway,Complete,2014,Retail,11450
318,500 Main Street,500,Main Street,Complete,2011,Office/R&D,308756
319,1663 Massachusetts Avenue,1663,Massachusetts Avenue,Complete,2010,Retail,0
321,1066 Cambridge Street,1066,Cambridge Street,Complete,2011,Residential,25734
321,1066 Cambridge Street,1066,Cambridge Street,Complete,2011,Retail,1998
325,7 Temple Street,7,Temple Street,Complete,2015,Residential,96161
327,160-180 Cambridgepark Drive,160-180,Cambridgepark Drive,Complete,2014,Residential,445000
330,10 Cpl. McTernan Street,10,Cpl. McTernan Street,Complete,2010,Residential,49302
331,610 Main Street,610,Main Street,Complete,2014,Office/R&D,180053
332,1131 Massachusetts Avenue,1131,Massachusetts Avenue,Complete,2010,Hotel,11077
334,22 Water Street,22,Water Street,Complete,2015,Residential,408225
340,7 Cameron Avenue,7,Cameron Avenue,Complete,2013,Residential,49993
341,625 Putnam Avenue,625,Putnam Avenue,Complete,2012,Residential,44303
342,45-47 Yerxa Road,45-47,Yerxa Road,Complete,2012,Residential,15372
344,17-19 Tremont Street,17-19,Tremont Street,Complete,2010,Residential,20422
346,87 New Street,87,New Street,Complete,2010,Residential,49999
347,181 Walden Street,181,Walden Street,Complete,2013,Residential,102000
347,181 Walden Street,181,Walden Street,Complete,2013,Community Center,4600
350,277 Broadway,277,Broadway,Complete,2010,Residential,10853
350,277 Broadway,277,Broadway,Complete,2010,Office/R&D,1978
351,1063-1077 Massachusetts Avenue,1063-1077,Massachusetts Avenue,Complete,2012,Residential,25024
351,1063-1077 Massachusetts Avenue,1063-1077,Massachusetts Avenue,Complete,2012,Retail,6928
353,126 Charles Street,126,Charles Street,Complete,2011,Residential,7593
354,259 Harvard Street,259,Harvard Street,Complete,2011,Residential,55668
357,61-69 Bolton Street,61-69,Bolton Street,Complete,2013,Residential,26436
358,40 Norris Street,40,Norris Street,Complete,2014,Residential,43782
358,40 Norris Street,40,Norris Street,Complete,2014,Office/R&D,1796
359,200-300 Discovery Park,200-300,Discovery Park,Complete,2011,Lab/R&D,235000
362,119-135 Harvey Street,119-135,Harvey Street,Complete,2013,Residential,26517
363,5 Western Avenue,5,Western Avenue,Complete,2013,Government,59676
365,8 Education Street,8,Education Street,Complete,2014,Office/R&D,295000
366,622-38 Massachusetts Avenue,622-38,Massachusetts Avenue,Complete,2013,Residential,26650
367,181 Massachusetts Avenue,181,Massachusetts Avenue,Complete,2015,Office/R&D,572663
369,75/125 Binney Street,75/125,Binney Street,Complete,2015,Office/R&D,330258
369,75/125 Binney Street,75/125,Binney Street,Complete,2015,Retail,8000
373,270 Third Street,270,Third Street,Complete,2015,Residential,82616
373,270 Third Street,270,Third Street,Complete,2015,Retail,8506
374,225 Binney Street,225,Binney Street,Complete,2013,Office/R&D,301048
375,17 Cambridge Center,17,Cambridge Center,Complete,2013,Office/R&D,188000
380, Discovery Park Garage A,,Discovery Park Garage A,Complete,2011,Parking Garage,238314
386,100 Pacific Street,100,Pacific Street,Complete,2013,Residential,19545
387,"22, 27 Cottage Park Avenue","22, 27",Cottage Park Avenue,Complete,2013,Residential,35590
389,10 Glassworks Avenue,10,Glassworks Avenue,Complete,2014,Residential,63210
391,42-54 Bay State Road,42-54,Bay State Road,Complete,2012,Residential,13215
394,20 Child Street,20,Child Street,Complete,2015,Residential,379743
394,20 Child Street,20,Child Street,Complete,2015,Retail,8257
397,32 Quincy Street,32,Quincy Street,Complete,2014,Museum,204000
401,100 Putnam Avenue,100,Putnam Avenue,Complete,2015,Government,169221
406,18 White Street,18,White Street,Complete,2014,Residential,9979
412,243 Bent Street,243,Bent Street,Complete,1997,Residential,0
414,600 Memorial Drive,600,Memorial Drive,Complete,1997,Office/R&D,72000
415,620 Memorial Drive,620,Memorial Drive,Complete,1997,Office/R&D,91500
416,258 Msgr. O'Brien Highway,258,Msgr. O'Brien Highway,Complete,1997,Hotel,50900
417,195 Binney Street,195,Binney Street,Complete,1998,Residential,272000
417,195 Binney Street,195,Binney Street,Complete,1998,Retail,3000
418,1-15 Davenport Street,1-15,Davenport Street,Complete,1998,Residential,23800
419,2105-2109 Massachusetts Avenue,2105-2109,Massachusetts Avenue,Complete,1998,Residential,0
420, Pemberton Street Condos,,Pemberton Street Condos,Complete,1998,Residential,0
421,1-37 White Street,1-37,White Street,Complete,1998,Retail,462844
422, Richdale Avenue,,Richdale Avenue,Complete,1998,Residential,78000
423,402 Rindge Avenue,402,Rindge Avenue,Complete,1998,Residential,0
424,20 Sidney Street,20,Sidney Street,Complete,1998,Parking Garage,0
424,20 Sidney Street,20,Sidney Street,Complete,1998,Office/R&D,90000
424,20 Sidney Street,20,Sidney Street,Complete,1998,Retail,85000
425,67-83 Webster Street,67-83,Webster Street,Complete,1998,Residential,12743
426,270 Albany Street,270,Albany Street,Complete,1999,Office/R&D,69000
427,203-205 Broadway,203-205,Broadway,Complete,1999,Office/R&D,180000
428,210 Broadway,210,Broadway,Complete,1999,Office/R&D,70000
429,6 Cambridge Center,6,Cambridge Center,Complete,1999,Hotel,0
430,8 Cambridge Center,8,Cambridge Center,Complete,1999,Office/R&D,177000
431,47 Erie Street,47,Erie Street,Complete,1999,Parking Garage,121104
433,163 Gore Street,163,Gore Street,Complete,1999,Office/R&D,26800
434,273 Harvard Street,273,Harvard Street,Complete,1999,Residential,0
435,1008 Massachusetts Avenue,1008,Massachusetts Avenue,Complete,1999,Residential,4000
435,1008 Massachusetts Avenue,1008,Massachusetts Avenue,Complete,1999,Retail,70610
436,1380-1392 Massachusetts Avenue,1380-1392,Massachusetts Avenue,Complete,1999,Office/R&D,25000
436,1380-1392 Massachusetts Avenue,1380-1392,Massachusetts Avenue,Complete,1999,Retail,25000
437,2525 Massachusetts Avenue,2525,Massachusetts Avenue,Complete,1999,Residential,0
439,808-812 Memorial Drive,808-812,Memorial Drive,Complete,1999,Residential,0
441,17-33 Oxford Street,17-33,Oxford Street,Complete,1999,Office/R&D,91500
442,101 Pacific Street,101,Pacific Street,Complete,1999,Parking Garage,266000
443,48 Porter Road,48,Porter Road,Complete,1999,Residential,0
444,26 Robinson Street,26,Robinson Street,Complete,1999,Office/R&D,6500
445,45 & 75 Sidney Street,45 & 75,Sidney Street,Complete,1999,Office/R&D,270000
446,815 Somerville Avenue,815,Somerville Avenue,Complete,1999,Office/R&D,20900
447,165 Western Avenue,165,Western Avenue,Complete,1999,Residential,0
448,10 Wilson Road,10,Wilson Road,Complete,1999,Office/R&D,75000
450, Brookline Street,,Brookline Street,Complete,2000,Residential,0
451,139 - 155 Brookline Street,139 - 155,Brookline Street,Complete,2000,Residential,34531
452,59 Norfolk Street,59,Norfolk Street,Complete,2000,Residential,0
453,210 Otis Street,210,Otis Street,Complete,2000,Residential,0
454,12 Oxford Street,12,Oxford Street,Complete,2000,Office/R&D,60500
456,354 Rindge Avenue,354,Rindge Avenue,Complete,2000,Residential,27116
457,330-334 Broadway,330-334,Broadway,Complete,2001,Residential,10995
458,15 Cambridge Center,15,Cambridge Center,Complete,2001,Office/R&D,224000
459,200 Cambridgepark Drive,200,Cambridgepark Drive,Complete,2001,Office/R&D,285500
460,1-9 Central Square,1-9,Central Square,Complete,2001,Residential,107650
460,1-9 Central Square,1-9,Central Square,Complete,2001,Retail,20350
462,98-100 Erie Street,98-100,Erie Street,Complete,2001,Residential,26602
463,250 Fresh Pond Parkway,250,Fresh Pond Parkway,Complete,2001,Utilities,154390
465,1 Kendall Square,1,Kendall Square,Complete,2001,Office/R&D,285000
466,65 Landsdowne Street,65,Landsdowne Street,Complete,2001,Office/R&D,129454
467,580 Massachusetts Avenue,580,Massachusetts Avenue,Complete,2001,Residential,0
468,125 Mount Auburn Street,125,Mount Auburn Street,Complete,2001,Office/R&D,49974
469,396-398 Putnam Avenue,396-398,Putnam Avenue,Complete,2001,Residential,0
470,70 Rindge Avenue,70,Rindge Avenue,Complete,2001,Government,124893
471,241 River Street,241,River Street,Complete,2001,Residential,23165
472,320 - 366 River Street,320 - 366,River Street,Complete,2001,Retail,44834
473,180 Sidney Street,180,Sidney Street,Complete,2001,Office/R&D,191104
477,101 Third Street,101,Third Street,Complete,2001,Residential,0
480,8 Bigelow Street,8,Bigelow Street,Complete,2002,Residential,0
481,8 Boardman Street,8,Boardman Street,Complete,2002,Residential,20000
483,30 Cambridgepark Drive,30,Cambridgepark Drive,Complete,2002,Residential,366350
489,350 Main Street,350,Main Street,Complete,2002,Hotel,37600
490,2443 Massachusetts Avenue,2443,Massachusetts Avenue,Complete,2002,Residential,20243
499,800 Technology Square,800,Technology Square,Complete,2001,Parking Garage,0
504,30 Pilgrim Street,30,Pilgrim Street,Complete,1999,Parking Garage,164304
504,30 Pilgrim Street,30,Pilgrim Street,Complete,1999,Retail,27384
523, Richdale Avenue,,Richdale Avenue,Complete,1998,Residential,0
577,139 Main Street,139,Main Street,Complete,1999,Office/R&D,35000
580,12 R Cambridge Center,12 R,Cambridge Center,Complete,2005,Office/R&D,132270
599,40 Brattle Street,40,Brattle Street,Complete,2000,Office/R&D,30700
599,40 Brattle Street,40,Brattle Street,Complete,2000,Retail,0
614,80-90 Fawcett Street,80-90,Fawcett Street,Complete,2014,Residential,466361
615,223 Concord Turnpike,223,Concord Turnpike,Complete,2014,Residential,253620
619,140 Cambridgepark Drive,140,Cambridgepark Drive,Complete,2015,Parking Garage,0
385,605 Concord Avenue,605,Concord Avenue,Complete,2015,Residential,57005
385,605 Concord Avenue,605,Concord Avenue,Complete,2015,Retail,7184
378,610 Main Street,610,Main Street,Complete,2016,Office/R&D,238264
390,165 Cambridgepark Drive,165,Cambridgepark Drive,Complete,2016,Residential,112000
410,300 Massachusetts Avenue,300,Massachusetts Avenue,Complete,2016,Office/R&D,203501
399,240 Sidney Street,240,Sidney Street,Complete,2016,Residential,96431
383,10 Acorn Park,10,Acorn Park,Complete,2016,Hotel,82340
618,192 Raymond Street,192,Raymond Street,Complete,2016,Residential,8200
410,300 Massachusetts Avenue,300,Massachusetts Avenue,Complete,2016,Retail,15000
400,35 Cottage Park Avenue,35,Cottage Park Avenue,Complete,2016,Residential,12200
409,15-33 Richdale Avenue,15-33,Richdale Avenue,Complete,2016,Residential,65384
392,131 Harvard Street,131,Harvard Street,Complete,2016,Residential,23342
329,1924 Massachusetts Avenue,1924,Massachusetts Avenue,Complete,2016,Hotel,24162
7,300 Third Street,300,Third Street,Complete,2002,Office/R&D,128090
601,8-12 Museum Way,8-12,Museum Way,Complete,1998,Residential,1016868
657,1 Education Street,1,Education Street,Complete,1997,Office/R&D,156684
663,19-21 Wendell Street,19-21,Wendell Street,Complete,2015,Residential,6513
432,2 First Street,2,First Street,Complete,1999,Office/R&D,197000
51,303 Third Street,303,Third Street,Complete,2009,Residential,570226
47,310-324 Rindge Avenue,310-324,Rindge Avenue,Complete,2006,Residential,146400
304,1 First Street,1,First Street,Complete,2008,Retail,9680
326,114 Mount Auburn Street,114,Mount Auburn Street,Complete,2015,Office/R&D,83200
658,1 Bow Street,1,Bow Street,Complete,2003,Retail,10000
304,1 First Street,1,First Street,Complete,2008,Residential,287326
658,1 Bow Street,1,Bow Street,Complete,2003,Office/R&D,25000
464,173-181 Harvey Street,173-181,Harvey Street,Complete,2001,Residential,54687
47,310-324 Rindge Avenue,310-324,Rindge Avenue,Complete,2006,Ambulance Service,7330
440,100-104 Mount Auburn Street,100-104,Mount Auburn Street,Complete,1999,Residential,24000
455,191-195 Prospect Street,191-195,Prospect Street,Complete,2000,Residential,0
280,330 Mount Auburn Street,330,Mount Auburn Street,Complete,2008,Hospital,107500
654,1-3 Langdon Street,1-3,Langdon Street,Complete,2016,Residential,26892
440,100-104 Mount Auburn Street,100-104,Mount Auburn Street,Complete,1999,Retail,29000
244,10-18 Decatur Street,10-18,Decatur Street,Complete,2005,Residential,31520
604,215 Msgr. O'Brien Highway,215,Msgr. O'Brien Highway,Complete,2015,Hotel,50368
376,150 Second Street,150,Second Street,Complete,2013,Office/R&D,108600
662,51-63 Loomis Street,51-63,Loomis Street,Complete,2012,Residential,19161
280,330 Mount Auburn Street,330,Mount Auburn Street,Complete,2008,Parking Garage,73400
402,168-174 Hampshire Street,168-174,Hampshire Street,Complete,2014,Residential,23543
1,770-790 Memorial Drive,770-790,Memorial Drive,Complete,2003,Office/R&D,158572
299,100 Main Street,100,Main Street,Complete,2010,Institutional,209000
493,70 Pacific Street,70,Pacific Street,Complete,2001,Institutional,346000
479,224 Albany Street,224,Albany Street,Complete,2002,Institutional,74976
255,24 Oxford Street,24,Oxford Street,Complete,2008,Institutional,410000
313,178 Coolidge Hill,178,Coolidge Hill,Complete,2009,Institutional,75363
262,15 Oxford Street,15,Oxford Street,Complete,2007,Institutional,118800
30,1730 Cambridge Street,1730,Cambridge Street,Complete,2005,Institutional,84377
501,100 Vassar Street,100,Vassar Street,Complete,2001,Institutional,110000
356,1801 Massachusetts Avenue,1801,Massachusetts Avenue,Complete,2015,Institutional,74500
300,1585 Massachusetts Avenue,1585,Massachusetts Avenue,Complete,2011,Institutional,234000
17,229 Vassar Street,229,Vassar Street,Complete,2002,Institutional,160000
449,50 Ames Street,50,Ames Street,Complete,2000,Institutional,129400
40,43 Vassar Street,43,Vassar Street,Complete,2005,Institutional,362000
8,10 Vassar Street,10,Vassar Street,Complete,2004,Institutional,446510
241,1737 Cambridge Street,1737,Cambridge Street,Complete,2005,Institutional,96054
296,235 Albany Street,235,Albany Street,Complete,2008,Institutional,246900
314,75 Amherst Street,75,Amherst Street,Complete,2009,Institutional,162665
319,1663 Massachusetts Avenue,1663,Massachusetts Avenue,Complete,2010,Institutional,34700
640,88 Cambridgepark Drive,88,Cambridgepark Drive,Complete,2017,Parking Garage,0
398,130 Cambridgepark Drive,130,Cambridgepark Drive,Complete,2017,Residential,213321
405,1971 Massachusetts Avenue,1971,Massachusetts Avenue,Complete,2017,Retail,3925
370,100 Binney Street,100,Binney Street,Complete,2017,Office/R&D,355000
687,3 Brookline Place,3,Brookline Place,Complete,2017,Residential,11025
606,79 JFK Street,79,JFK Street,Complete,2017,Institutional,76862
405,1971 Massachusetts Avenue,1971,Massachusetts Avenue,Complete,2017,Residential,22426
360,50/60 Binney Street,50/60,Binney Street,Complete,2017,Office/R&D,462512
640,88 Cambridgepark Drive,88,Cambridgepark Drive,Complete,2017,Office/R&D,26800
370,100 Binney Street,100,Binney Street,Complete,2017,Retail,1941
360,50/60 Binney Street,50/60,Binney Street,Complete,2017,Retail,5000
