ColorId,RGB,MinJobDensity,MaxJobDensity,Units
1,"204,204,238",5.0,282.0,Jobs per square mile
2,"153,153,221",283.0,1116.0,Jobs per square mile
3,"102,102,204",1117.0,2506.0,Jobs per square mile
4,"51,51,187",2507.0,4452.0,Jobs per square mile
5,"0,0,170",4453.0,6954.0,Jobs per square mile